%!PS-Adobe-3.0 EPSF-3.0
%%Creator: (MATLAB, The Mathworks, Inc. Version 9.1.0.441655 \(R2016b\). Operating System: Linux)
%%Title: /temp/hommel/results/Gorgas_promo_RainerSpecialIssue/newPlots_forRainerSpecialIssue/gorgas_calcite_perpendicular.eps
%%CreationDate: 2018-02-07T14:35:37
%%Pages: (atend)
%%BoundingBox: 0 0 600 300
%%LanguageLevel: 3
%%EndComments
%%BeginProlog
%%BeginResource: procset (Apache XML Graphics Std ProcSet) 1.2 0
%%Version: 1.2 0
%%Copyright: (Copyright 2001-2003,2010 The Apache Software Foundation. License terms: http://www.apache.org/licenses/LICENSE-2.0)
/bd{bind def}bind def
/ld{load def}bd
/GR/grestore ld
/M/moveto ld
/LJ/setlinejoin ld
/C/curveto ld
/f/fill ld
/LW/setlinewidth ld
/GC/setgray ld
/t/show ld
/N/newpath ld
/CT/concat ld
/cp/closepath ld
/S/stroke ld
/L/lineto ld
/CC/setcmykcolor ld
/A/ashow ld
/GS/gsave ld
/RC/setrgbcolor ld
/RM/rmoveto ld
/ML/setmiterlimit ld
/re {4 2 roll M
1 index 0 rlineto
0 exch rlineto
neg 0 rlineto
cp } bd
/_ctm matrix def
/_tm matrix def
/BT { _ctm currentmatrix pop matrix _tm copy pop 0 0 moveto } bd
/ET { _ctm setmatrix } bd
/iTm { _ctm setmatrix _tm concat } bd
/Tm { _tm astore pop iTm 0 0 moveto } bd
/ux 0.0 def
/uy 0.0 def
/F {
  /Tp exch def
  /Tf exch def
  Tf findfont Tp scalefont setfont
  /cf Tf def  /cs Tp def
} bd
/ULS {currentpoint /uy exch def /ux exch def} bd
/ULE {
  /Tcx currentpoint pop def
  gsave
  newpath
  cf findfont cs scalefont dup
  /FontMatrix get 0 get /Ts exch def /FontInfo get dup
  /UnderlinePosition get Ts mul /To exch def
  /UnderlineThickness get Ts mul /Tt exch def
  ux uy To add moveto  Tcx uy To add lineto
  Tt setlinewidth stroke
  grestore
} bd
/OLE {
  /Tcx currentpoint pop def
  gsave
  newpath
  cf findfont cs scalefont dup
  /FontMatrix get 0 get /Ts exch def /FontInfo get dup
  /UnderlinePosition get Ts mul /To exch def
  /UnderlineThickness get Ts mul /Tt exch def
  ux uy To add cs add moveto Tcx uy To add cs add lineto
  Tt setlinewidth stroke
  grestore
} bd
/SOE {
  /Tcx currentpoint pop def
  gsave
  newpath
  cf findfont cs scalefont dup
  /FontMatrix get 0 get /Ts exch def /FontInfo get dup
  /UnderlinePosition get Ts mul /To exch def
  /UnderlineThickness get Ts mul /Tt exch def
  ux uy To add cs 10 mul 26 idiv add moveto Tcx uy To add cs 10 mul 26 idiv add lineto
  Tt setlinewidth stroke
  grestore
} bd
/QT {
/Y22 exch store
/X22 exch store
/Y21 exch store
/X21 exch store
currentpoint
/Y21 load 2 mul add 3 div exch
/X21 load 2 mul add 3 div exch
/X21 load 2 mul /X22 load add 3 div
/Y21 load 2 mul /Y22 load add 3 div
/X22 load /Y22 load curveto
} bd
/SSPD {
dup length /d exch dict def
{
/v exch def
/k exch def
currentpagedevice k known {
/cpdv currentpagedevice k get def
v cpdv ne {
/upd false def
/nullv v type /nulltype eq def
/nullcpdv cpdv type /nulltype eq def
nullv nullcpdv or
{
/upd true def
} {
/sametype v type cpdv type eq def
sametype {
v type /arraytype eq {
/vlen v length def
/cpdvlen cpdv length def
vlen cpdvlen eq {
0 1 vlen 1 sub {
/i exch def
/obj v i get def
/cpdobj cpdv i get def
obj cpdobj ne {
/upd true def
exit
} if
} for
} {
/upd true def
} ifelse
} {
v type /dicttype eq {
v {
/dv exch def
/dk exch def
/cpddv cpdv dk get def
dv cpddv ne {
/upd true def
exit
} if
} forall
} {
/upd true def
} ifelse
} ifelse
} if
} ifelse
upd true eq {
d k v put
} if
} if
} if
} forall
d length 0 gt {
d setpagedevice
} if
} bd
/RE { % /NewFontName [NewEncodingArray] /FontName RE -
  findfont dup length dict begin
  {
    1 index /FID ne
    {def} {pop pop} ifelse
  } forall
  /Encoding exch def
  /FontName 1 index def
  currentdict definefont pop
  end
} bind def
%%EndResource
%%BeginResource: procset (Apache XML Graphics EPS ProcSet) 1.0 0
%%Version: 1.0 0
%%Copyright: (Copyright 2002-2003 The Apache Software Foundation. License terms: http://www.apache.org/licenses/LICENSE-2.0)
/BeginEPSF { %def
/b4_Inc_state save def         % Save state for cleanup
/dict_count countdictstack def % Count objects on dict stack
/op_count count 1 sub def      % Count objects on operand stack
userdict begin                 % Push userdict on dict stack
/showpage { } def              % Redefine showpage, { } = null proc
0 setgray 0 setlinecap         % Prepare graphics state
1 setlinewidth 0 setlinejoin
10 setmiterlimit [ ] 0 setdash newpath
/languagelevel where           % If level not equal to 1 then
{pop languagelevel             % set strokeadjust and
1 ne                           % overprint to their defaults.
{false setstrokeadjust false setoverprint
} if
} if
} bd
/EndEPSF { %def
count op_count sub {pop} repeat            % Clean up stacks
countdictstack dict_count sub {end} repeat
b4_Inc_state restore
} bd
%%EndResource
%FOPBeginFontDict
%%IncludeResource: font Courier-Bold
%%IncludeResource: font Helvetica
%%IncludeResource: font Courier-BoldOblique
%%IncludeResource: font Courier-Oblique
%%IncludeResource: font Times-Roman
%%IncludeResource: font Helvetica-BoldOblique
%%IncludeResource: font Helvetica-Bold
%%IncludeResource: font Helvetica-Oblique
%%IncludeResource: font Times-BoldItalic
%%IncludeResource: font Courier
%%IncludeResource: font Times-Italic
%%IncludeResource: font Times-Bold
%%IncludeResource: font Symbol
%%IncludeResource: font ZapfDingbats
%FOPEndFontDict
%%BeginResource: encoding WinAnsiEncoding
/WinAnsiEncoding [
/.notdef /.notdef /.notdef /.notdef /.notdef
/.notdef /.notdef /.notdef /.notdef /.notdef
/.notdef /.notdef /.notdef /.notdef /.notdef
/.notdef /.notdef /.notdef /.notdef /.notdef
/.notdef /.notdef /.notdef /.notdef /.notdef
/.notdef /.notdef /.notdef /.notdef /.notdef
/.notdef /.notdef /space /exclam /quotedbl
/numbersign /dollar /percent /ampersand /quotesingle
/parenleft /parenright /asterisk /plus /comma
/hyphen /period /slash /zero /one
/two /three /four /five /six
/seven /eight /nine /colon /semicolon
/less /equal /greater /question /at
/A /B /C /D /E
/F /G /H /I /J
/K /L /M /N /O
/P /Q /R /S /T
/U /V /W /X /Y
/Z /bracketleft /backslash /bracketright /asciicircum
/underscore /quoteleft /a /b /c
/d /e /f /g /h
/i /j /k /l /m
/n /o /p /q /r
/s /t /u /v /w
/x /y /z /braceleft /bar
/braceright /asciitilde /bullet /Euro /bullet
/quotesinglbase /florin /quotedblbase /ellipsis /dagger
/daggerdbl /circumflex /perthousand /Scaron /guilsinglleft
/OE /bullet /Zcaron /bullet /bullet
/quoteleft /quoteright /quotedblleft /quotedblright /bullet
/endash /emdash /asciitilde /trademark /scaron
/guilsinglright /oe /bullet /zcaron /Ydieresis
/space /exclamdown /cent /sterling /currency
/yen /brokenbar /section /dieresis /copyright
/ordfeminine /guillemotleft /logicalnot /sfthyphen /registered
/macron /degree /plusminus /twosuperior /threesuperior
/acute /mu /paragraph /middot /cedilla
/onesuperior /ordmasculine /guillemotright /onequarter /onehalf
/threequarters /questiondown /Agrave /Aacute /Acircumflex
/Atilde /Adieresis /Aring /AE /Ccedilla
/Egrave /Eacute /Ecircumflex /Edieresis /Igrave
/Iacute /Icircumflex /Idieresis /Eth /Ntilde
/Ograve /Oacute /Ocircumflex /Otilde /Odieresis
/multiply /Oslash /Ugrave /Uacute /Ucircumflex
/Udieresis /Yacute /Thorn /germandbls /agrave
/aacute /acircumflex /atilde /adieresis /aring
/ae /ccedilla /egrave /eacute /ecircumflex
/edieresis /igrave /iacute /icircumflex /idieresis
/eth /ntilde /ograve /oacute /ocircumflex
/otilde /odieresis /divide /oslash /ugrave
/uacute /ucircumflex /udieresis /yacute /thorn
/ydieresis
] def
%%EndResource
%FOPBeginFontReencode
/Courier-Bold findfont
dup length dict begin
  {1 index /FID ne {def} {pop pop} ifelse} forall
  /Encoding WinAnsiEncoding def
  currentdict
end
/Courier-Bold exch definefont pop
/Helvetica findfont
dup length dict begin
  {1 index /FID ne {def} {pop pop} ifelse} forall
  /Encoding WinAnsiEncoding def
  currentdict
end
/Helvetica exch definefont pop
/Courier-BoldOblique findfont
dup length dict begin
  {1 index /FID ne {def} {pop pop} ifelse} forall
  /Encoding WinAnsiEncoding def
  currentdict
end
/Courier-BoldOblique exch definefont pop
/Courier-Oblique findfont
dup length dict begin
  {1 index /FID ne {def} {pop pop} ifelse} forall
  /Encoding WinAnsiEncoding def
  currentdict
end
/Courier-Oblique exch definefont pop
/Times-Roman findfont
dup length dict begin
  {1 index /FID ne {def} {pop pop} ifelse} forall
  /Encoding WinAnsiEncoding def
  currentdict
end
/Times-Roman exch definefont pop
/Helvetica-BoldOblique findfont
dup length dict begin
  {1 index /FID ne {def} {pop pop} ifelse} forall
  /Encoding WinAnsiEncoding def
  currentdict
end
/Helvetica-BoldOblique exch definefont pop
/Helvetica-Bold findfont
dup length dict begin
  {1 index /FID ne {def} {pop pop} ifelse} forall
  /Encoding WinAnsiEncoding def
  currentdict
end
/Helvetica-Bold exch definefont pop
/Helvetica-Oblique findfont
dup length dict begin
  {1 index /FID ne {def} {pop pop} ifelse} forall
  /Encoding WinAnsiEncoding def
  currentdict
end
/Helvetica-Oblique exch definefont pop
/Times-BoldItalic findfont
dup length dict begin
  {1 index /FID ne {def} {pop pop} ifelse} forall
  /Encoding WinAnsiEncoding def
  currentdict
end
/Times-BoldItalic exch definefont pop
/Courier findfont
dup length dict begin
  {1 index /FID ne {def} {pop pop} ifelse} forall
  /Encoding WinAnsiEncoding def
  currentdict
end
/Courier exch definefont pop
/Times-Italic findfont
dup length dict begin
  {1 index /FID ne {def} {pop pop} ifelse} forall
  /Encoding WinAnsiEncoding def
  currentdict
end
/Times-Italic exch definefont pop
/Times-Bold findfont
dup length dict begin
  {1 index /FID ne {def} {pop pop} ifelse} forall
  /Encoding WinAnsiEncoding def
  currentdict
end
/Times-Bold exch definefont pop
%FOPEndFontReencode
%%EndProlog
%%Page: 1 1
%%PageBoundingBox: 0 0 600 300
%%BeginPageSetup
[1 0 0 -1 0 300] CT
%%EndPageSetup
GS
[0.75 0 0 0.75 0 0] CT
1 GC
N
0 0 800 400 re
f
GR
GS
[0.75 0 0 0.75 0 0] CT
1 GC
N
0 0 800 400 re
f
GR
GS
[0.75 0 0 0.75 0 0] CT
1 GC
N
104 334 M
724 334 L
724 30 L
104 30 L
cp
f
GR
GS
[0.75 0 0 0.75 0 0] CT
0.149 GC
2 setlinecap
1 LJ
0.667 LW
N
104 334 M
724 334 L
S
GR
GS
[0.75 0 0 0.75 0 0] CT
0.149 GC
2 setlinecap
1 LJ
0.667 LW
N
104 30 M
724 30 L
S
GR
GS
[0.75 0 0 0.75 0 0] CT
0.149 GC
2 setlinecap
1 LJ
0.667 LW
N
104 334 M
104 327.8 L
S
GR
GS
[0.75 0 0 0.75 0 0] CT
0.149 GC
2 setlinecap
1 LJ
0.667 LW
N
228 334 M
228 327.8 L
S
GR
GS
[0.75 0 0 0.75 0 0] CT
0.149 GC
2 setlinecap
1 LJ
0.667 LW
N
352 334 M
352 327.8 L
S
GR
GS
[0.75 0 0 0.75 0 0] CT
0.149 GC
2 setlinecap
1 LJ
0.667 LW
N
476 334 M
476 327.8 L
S
GR
GS
[0.75 0 0 0.75 0 0] CT
0.149 GC
2 setlinecap
1 LJ
0.667 LW
N
600 334 M
600 327.8 L
S
GR
GS
[0.75 0 0 0.75 0 0] CT
0.149 GC
2 setlinecap
1 LJ
0.667 LW
N
724 334 M
724 327.8 L
S
GR
GS
[0.75 0 0 0.75 0 0] CT
0.149 GC
2 setlinecap
1 LJ
0.667 LW
N
104 30 M
104 36.2 L
S
GR
GS
[0.75 0 0 0.75 0 0] CT
0.149 GC
2 setlinecap
1 LJ
0.667 LW
N
228 30 M
228 36.2 L
S
GR
GS
[0.75 0 0 0.75 0 0] CT
0.149 GC
2 setlinecap
1 LJ
0.667 LW
N
352 30 M
352 36.2 L
S
GR
GS
[0.75 0 0 0.75 0 0] CT
0.149 GC
2 setlinecap
1 LJ
0.667 LW
N
476 30 M
476 36.2 L
S
GR
GS
[0.75 0 0 0.75 0 0] CT
0.149 GC
2 setlinecap
1 LJ
0.667 LW
N
600 30 M
600 36.2 L
S
GR
GS
[0.75 0 0 0.75 0 0] CT
0.149 GC
2 setlinecap
1 LJ
0.667 LW
N
724 30 M
724 36.2 L
S
GR
GS
[0.75 0 0 0.75 78 255.69999] CT
0.149 GC
/Helvetica 21.333 F
GS
[1 0 0 1 0 0] CT
-21 23 moveto 
1 -1 scale
(-342) t 
GR
GR
GS
[0.75 0 0 0.75 171 255.69999] CT
0.149 GC
/Helvetica 21.333 F
GS
[1 0 0 1 0 0] CT
-21 23 moveto 
1 -1 scale
(-341) t 
GR
GR
GS
[0.75 0 0 0.75 264 255.69999] CT
0.149 GC
/Helvetica 21.333 F
GS
[1 0 0 1 0 0] CT
-21 23 moveto 
1 -1 scale
(-340) t 
GR
GR
GS
[0.75 0 0 0.75 357 255.69999] CT
0.149 GC
/Helvetica 21.333 F
GS
[1 0 0 1 0 0] CT
-21 23 moveto 
1 -1 scale
(-339) t 
GR
GR
GS
[0.75 0 0 0.75 450 255.69999] CT
0.149 GC
/Helvetica 21.333 F
GS
[1 0 0 1 0 0] CT
-21 23 moveto 
1 -1 scale
(-338) t 
GR
GR
GS
[0.75 0 0 0.75 543 255.69999] CT
0.149 GC
/Helvetica 21.333 F
GS
[1 0 0 1 0 0] CT
-21 23 moveto 
1 -1 scale
(-337) t 
GR
GR
GS
[0.75 0 0 0.75 310.5 278.25] CT
0.149 GC
/Helvetica 21.333 F
GS
[1 0 0 1 0 0] CT
-45 23 moveto 
1 -1 scale
(Depth [m]) t 
GR
GR
GS
[0.75 0 0 0.75 0 0] CT
0.149 GC
2 setlinecap
1 LJ
0.667 LW
N
104 334 M
104 30 L
S
GR
GS
[0.75 0 0 0.75 0 0] CT
0.149 GC
2 setlinecap
1 LJ
0.667 LW
N
724 334 M
724 30 L
S
GR
GS
[0.75 0 0 0.75 0 0] CT
0.149 GC
2 setlinecap
1 LJ
0.667 LW
N
104 334 M
110.198 334 L
S
GR
GS
[0.75 0 0 0.75 0 0] CT
0.149 GC
2 setlinecap
1 LJ
0.667 LW
N
104 258 M
110.198 258 L
S
GR
GS
[0.75 0 0 0.75 0 0] CT
0.149 GC
2 setlinecap
1 LJ
0.667 LW
N
104 182 M
110.198 182 L
S
GR
GS
[0.75 0 0 0.75 0 0] CT
0.149 GC
2 setlinecap
1 LJ
0.667 LW
N
104 106 M
110.198 106 L
S
GR
GS
[0.75 0 0 0.75 0 0] CT
0.149 GC
2 setlinecap
1 LJ
0.667 LW
N
104 30 M
110.198 30 L
S
GR
GS
[0.75 0 0 0.75 0 0] CT
0.149 GC
2 setlinecap
1 LJ
0.667 LW
N
724 334 M
717.802 334 L
S
GR
GS
[0.75 0 0 0.75 0 0] CT
0.149 GC
2 setlinecap
1 LJ
0.667 LW
N
724 258 M
717.802 258 L
S
GR
GS
[0.75 0 0 0.75 0 0] CT
0.149 GC
2 setlinecap
1 LJ
0.667 LW
N
724 182 M
717.802 182 L
S
GR
GS
[0.75 0 0 0.75 0 0] CT
0.149 GC
2 setlinecap
1 LJ
0.667 LW
N
724 106 M
717.802 106 L
S
GR
GS
[0.75 0 0 0.75 0 0] CT
0.149 GC
2 setlinecap
1 LJ
0.667 LW
N
724 30 M
717.802 30 L
S
GR
GS
[0.75 0 0 0.75 72.80054 250.5] CT
0.149 GC
/Helvetica 21.333 F
GS
[1 0 0 1 0 0] CT
-12 8.5 moveto 
1 -1 scale
(0) t 
GR
GR
GS
[0.75 0 0 0.75 72.80054 193.5] CT
0.149 GC
/Helvetica 21.333 F
GS
[1 0 0 1 0 0] CT
-53 8.5 moveto 
1 -1 scale
(0.005) t 
GR
GR
GS
[0.75 0 0 0.75 72.80054 136.5] CT
0.149 GC
/Helvetica 21.333 F
GS
[1 0 0 1 0 0] CT
-41 8.5 moveto 
1 -1 scale
(0.01) t 
GR
GR
GS
[0.75 0 0 0.75 72.80054 79.50001] CT
0.149 GC
/Helvetica 21.333 F
GS
[1 0 0 1 0 0] CT
-53 8.5 moveto 
1 -1 scale
(0.015) t 
GR
GR
GS
[0.75 0 0 0.75 72.80054 22.50001] CT
0.149 GC
/Helvetica 21.333 F
GS
[1 0 0 1 0 0] CT
-41 8.5 moveto 
1 -1 scale
(0.02) t 
GR
GR
GS
[0 -0.75 0.75 0 30.04971 136.4999] CT
0.149 GC
/Helvetica 21.333 F
GS
[1 0 0 1 0 0] CT
-122.5 -6 moveto 
1 -1 scale
(Calcite Volume Fraction [-]) t 
GR
GR
GS
[0.75 0 0 0.75 0 0] CT
0 0 1 RC
1 LJ
2.667 LW
N
104 334 M
125.059 333.851 L
167.434 332.62 L
195.683 328.465 L
214.513 321.6 L
227.069 311.592 L
235.44 302.222 L
241.021 274.813 L
244.741 258.411 L
247.22 241.197 L
248.461 214.755 L
249.698 169.202 L
250.94 61.317 L
252.181 102.803 L
253.418 77.008 L
254.66 61.745 L
255.901 167.008 L
257.138 214.243 L
258.379 239.833 L
260.862 258.144 L
264.582 275.077 L
270.16 301.992 L
278.53 311.606 L
291.086 320.789 L
309.916 328.459 L
338.165 332.618 L
380.54 333.846 L
401.599 334 L
S
GR
GS
[0.75 0 0 0.75 0 0] CT
1 0 0 RC
[8 8] 0 setdash
2 LJ
2.667 LW
N
103.926 333.963 M
146.47 333.886 L
188.319 332.193 L
216.22 323.191 L
234.819 298.524 L
247.22 228.119 L
249.698 141.919 L
252.181 121.153 L
254.66 54.574 L
257.138 234.351 L
270.78 301.002 L
289.379 324.562 L
317.28 332.281 L
359.129 333.892 L
421.905 334 L
516.067 334 L
657.311 334 L
724.074 334 L
S
GR
GS
[0.75 0 0 0.75 0 0] CT
[2 2] 0 setdash
2 LJ
2.667 LW
N
103.926 333.987 M
170.34 333.923 L
210.021 333.017 L
229.862 323.501 L
239.78 292.829 L
244.741 253.763 L
247.22 204.139 L
248.461 213.568 L
249.698 247.618 L
250.94 209.332 L
252.181 169.987 L
253.418 167.805 L
254.66 207.087 L
255.901 249.122 L
257.138 223.907 L
258.379 203.483 L
260.862 252.443 L
265.819 292.744 L
275.741 323.496 L
295.582 333.018 L
335.259 333.923 L
414.621 334 L
573.34 334 L
724.074 334 L
S
GR
GS
[0.75 0 0 0.75 127.75534 250.44214] CT
10.0 ML
2.667 LW
N
6.167 -0.5 M
6.167 -4.182 3.182 -7.167 -0.5 -7.167 C
-4.182 -7.167 -7.167 -4.182 -7.167 -0.5 C
-7.167 3.182 -4.182 6.167 -0.5 6.167 C
3.182 6.167 6.167 3.182 6.167 -0.5 C
S
GR
GS
[0.75 0 0 0.75 157.51602 249.76252] CT
10.0 ML
2.667 LW
N
6.167 -0.5 M
6.167 -4.182 3.182 -7.167 -0.5 -7.167 C
-4.182 -7.167 -7.167 -4.182 -7.167 -0.5 C
-7.167 3.182 -4.182 6.167 -0.5 6.167 C
3.182 6.167 6.167 3.182 6.167 -0.5 C
S
GR
GS
[0.75 0 0 0.75 172.39636 242.62601] CT
10.0 ML
2.667 LW
N
6.167 -0.5 M
6.167 -4.182 3.182 -7.167 -0.5 -7.167 C
-4.182 -7.167 -7.167 -4.182 -7.167 -0.5 C
-7.167 3.182 -4.182 6.167 -0.5 6.167 C
3.182 6.167 6.167 3.182 6.167 -0.5 C
S
GR
GS
[0.75 0 0 0.75 179.83511 219.62185] CT
10.0 ML
2.667 LW
N
6.167 -0.5 M
6.167 -4.182 3.182 -7.167 -0.5 -7.167 C
-4.182 -7.167 -7.167 -4.182 -7.167 -0.5 C
-7.167 3.182 -4.182 6.167 -0.5 6.167 C
3.182 6.167 6.167 3.182 6.167 -0.5 C
S
GR
GS
[0.75 0 0 0.75 183.55591 190.32214] CT
10.0 ML
2.667 LW
N
6.167 -0.5 M
6.167 -4.182 3.182 -7.167 -0.5 -7.167 C
-4.182 -7.167 -7.167 -4.182 -7.167 -0.5 C
-7.167 3.182 -4.182 6.167 -0.5 6.167 C
3.182 6.167 6.167 3.182 6.167 -0.5 C
S
GR
GS
[0.75 0 0 0.75 185.41489 153.10432] CT
10.0 ML
2.667 LW
N
6.167 -0.5 M
6.167 -4.182 3.182 -7.167 -0.5 -7.167 C
-4.182 -7.167 -7.167 -4.182 -7.167 -0.5 C
-7.167 3.182 -4.182 6.167 -0.5 6.167 C
3.182 6.167 6.167 3.182 6.167 -0.5 C
S
GR
GS
[0.75 0 0 0.75 186.34579 160.1762] CT
10.0 ML
2.667 LW
N
6.167 -0.5 M
6.167 -4.182 3.182 -7.167 -0.5 -7.167 C
-4.182 -7.167 -7.167 -4.182 -7.167 -0.5 C
-7.167 3.182 -4.182 6.167 -0.5 6.167 C
3.182 6.167 6.167 3.182 6.167 -0.5 C
S
GR
GS
[0.75 0 0 0.75 187.27386 185.71369] CT
10.0 ML
2.667 LW
N
6.167 -0.5 M
6.167 -4.182 3.182 -7.167 -0.5 -7.167 C
-4.182 -7.167 -7.167 -4.182 -7.167 -0.5 C
-7.167 3.182 -4.182 6.167 -0.5 6.167 C
3.182 6.167 6.167 3.182 6.167 -0.5 C
S
GR
GS
[0.75 0 0 0.75 188.20477 156.99879] CT
10.0 ML
2.667 LW
N
6.167 -0.5 M
6.167 -4.182 3.182 -7.167 -0.5 -7.167 C
-4.182 -7.167 -7.167 -4.182 -7.167 -0.5 C
-7.167 3.182 -4.182 6.167 -0.5 6.167 C
3.182 6.167 6.167 3.182 6.167 -0.5 C
S
GR
GS
[0.75 0 0 0.75 189.13568 127.49058] CT
10.0 ML
2.667 LW
N
6.167 -0.5 M
6.167 -4.182 3.182 -7.167 -0.5 -7.167 C
-4.182 -7.167 -7.167 -4.182 -7.167 -0.5 C
-7.167 3.182 -4.182 6.167 -0.5 6.167 C
3.182 6.167 6.167 3.182 6.167 -0.5 C
S
GR
GS
[0.75 0 0 0.75 190.06375 125.85354] CT
10.0 ML
2.667 LW
N
6.167 -0.5 M
6.167 -4.182 3.182 -7.167 -0.5 -7.167 C
-4.182 -7.167 -7.167 -4.182 -7.167 -0.5 C
-7.167 3.182 -4.182 6.167 -0.5 6.167 C
3.182 6.167 6.167 3.182 6.167 -0.5 C
S
GR
GS
[0.75 0 0 0.75 190.99466 155.31513] CT
10.0 ML
2.667 LW
N
6.167 -0.5 M
6.167 -4.182 3.182 -7.167 -0.5 -7.167 C
-4.182 -7.167 -7.167 -4.182 -7.167 -0.5 C
-7.167 3.182 -4.182 6.167 -0.5 6.167 C
3.182 6.167 6.167 3.182 6.167 -0.5 C
S
GR
GS
[0.75 0 0 0.75 191.92557 186.84137] CT
10.0 ML
2.667 LW
N
6.167 -0.5 M
6.167 -4.182 3.182 -7.167 -0.5 -7.167 C
-4.182 -7.167 -7.167 -4.182 -7.167 -0.5 C
-7.167 3.182 -4.182 6.167 -0.5 6.167 C
3.182 6.167 6.167 3.182 6.167 -0.5 C
S
GR
GS
[0.75 0 0 0.75 192.85364 167.93003] CT
10.0 ML
2.667 LW
N
6.167 -0.5 M
6.167 -4.182 3.182 -7.167 -0.5 -7.167 C
-4.182 -7.167 -7.167 -4.182 -7.167 -0.5 C
-7.167 3.182 -4.182 6.167 -0.5 6.167 C
3.182 6.167 6.167 3.182 6.167 -0.5 C
S
GR
GS
[0.75 0 0 0.75 193.78455 152.61195] CT
10.0 ML
2.667 LW
N
6.167 -0.5 M
6.167 -4.182 3.182 -7.167 -0.5 -7.167 C
-4.182 -7.167 -7.167 -4.182 -7.167 -0.5 C
-7.167 3.182 -4.182 6.167 -0.5 6.167 C
3.182 6.167 6.167 3.182 6.167 -0.5 C
S
GR
GS
[0.75 0 0 0.75 195.64636 189.33227] CT
10.0 ML
2.667 LW
N
6.167 -0.5 M
6.167 -4.182 3.182 -7.167 -0.5 -7.167 C
-4.182 -7.167 -7.167 -4.182 -7.167 -0.5 C
-7.167 3.182 -4.182 6.167 -0.5 6.167 C
3.182 6.167 6.167 3.182 6.167 -0.5 C
S
GR
GS
[0.75 0 0 0.75 199.36432 219.5579] CT
10.0 ML
2.667 LW
N
6.167 -0.5 M
6.167 -4.182 3.182 -7.167 -0.5 -7.167 C
-4.182 -7.167 -7.167 -4.182 -7.167 -0.5 C
-7.167 3.182 -4.182 6.167 -0.5 6.167 C
3.182 6.167 6.167 3.182 6.167 -0.5 C
S
GR
GS
[0.75 0 0 0.75 206.80591 242.62237] CT
10.0 ML
2.667 LW
N
6.167 -0.5 M
6.167 -4.182 3.182 -7.167 -0.5 -7.167 C
-4.182 -7.167 -7.167 -4.182 -7.167 -0.5 C
-7.167 3.182 -4.182 6.167 -0.5 6.167 C
3.182 6.167 6.167 3.182 6.167 -0.5 C
S
GR
GS
[0.75 0 0 0.75 221.68625 249.76378] CT
10.0 ML
2.667 LW
N
6.167 -0.5 M
6.167 -4.182 3.182 -7.167 -0.5 -7.167 C
-4.182 -7.167 -7.167 -4.182 -7.167 -0.5 C
-7.167 3.182 -4.182 6.167 -0.5 6.167 C
3.182 6.167 6.167 3.182 6.167 -0.5 C
S
GR
GS
[0.75 0 0 0.75 251.44409 250.44257] CT
10.0 ML
2.667 LW
N
6.167 -0.5 M
6.167 -4.182 3.182 -7.167 -0.5 -7.167 C
-4.182 -7.167 -7.167 -4.182 -7.167 -0.5 C
-7.167 3.182 -4.182 6.167 -0.5 6.167 C
3.182 6.167 6.167 3.182 6.167 -0.5 C
S
GR
GS
[0.75 0 0 0.75 310.96545 250.5] CT
10.0 ML
2.667 LW
N
6.167 -0.5 M
6.167 -4.182 3.182 -7.167 -0.5 -7.167 C
-4.182 -7.167 -7.167 -4.182 -7.167 -0.5 C
-7.167 3.182 -4.182 6.167 -0.5 6.167 C
3.182 6.167 6.167 3.182 6.167 -0.5 C
S
GR
GS
[0.75 0 0 0.75 430.00534 250.5] CT
10.0 ML
2.667 LW
N
6.167 -0.5 M
6.167 -4.182 3.182 -7.167 -0.5 -7.167 C
-4.182 -7.167 -7.167 -4.182 -7.167 -0.5 C
-7.167 3.182 -4.182 6.167 -0.5 6.167 C
3.182 6.167 6.167 3.182 6.167 -0.5 C
S
GR
GS
[0.75 0 0 0.75 0 0] CT
0 1 0 RC
1 LJ
2.667 LW
N
103.926 333.999 M
170.34 333.993 L
210.021 333.739 L
229.862 331.624 L
239.78 328.009 L
244.741 328.199 L
247.22 328.952 L
248.461 330.546 L
249.698 330.519 L
250.94 329.621 L
252.181 327.295 L
253.418 327.311 L
254.66 330.345 L
255.901 330.527 L
257.138 330.609 L
258.379 328.909 L
260.862 328.196 L
265.819 327.896 L
275.741 331.634 L
295.582 333.742 L
335.259 333.993 L
414.621 334 L
573.34 334 L
724.074 334 L
S
GR
GS
[0.75 0 0 0.75 127.75534 250.49453] CT
0 1 0 RC
10.0 ML
2.667 LW
N
0 -7 M
0 7 L
-7 0 M
7 0 L
S
GR
GS
[0.75 0 0 0.75 157.51602 250.30447] CT
0 1 0 RC
10.0 ML
2.667 LW
N
0 -7 M
0 7 L
-7 0 M
7 0 L
S
GR
GS
[0.75 0 0 0.75 172.39636 248.71818] CT
0 1 0 RC
10.0 ML
2.667 LW
N
0 -7 M
0 7 L
-7 0 M
7 0 L
S
GR
GS
[0.75 0 0 0.75 179.83511 246.00694] CT
0 1 0 RC
10.0 ML
2.667 LW
N
0 -7 M
0 7 L
-7 0 M
7 0 L
S
GR
GS
[0.75 0 0 0.75 183.55591 246.14935] CT
0 1 0 RC
10.0 ML
2.667 LW
N
0 -7 M
0 7 L
-7 0 M
7 0 L
S
GR
GS
[0.75 0 0 0.75 185.41489 246.71411] CT
0 1 0 RC
10.0 ML
2.667 LW
N
0 -7 M
0 7 L
-7 0 M
7 0 L
S
GR
GS
[0.75 0 0 0.75 186.34579 247.90915] CT
0 1 0 RC
10.0 ML
2.667 LW
N
0 -7 M
0 7 L
-7 0 M
7 0 L
S
GR
GS
[0.75 0 0 0.75 187.27386 247.88958] CT
0 1 0 RC
10.0 ML
2.667 LW
N
0 -7 M
0 7 L
-7 0 M
7 0 L
S
GR
GS
[0.75 0 0 0.75 188.20477 247.21598] CT
0 1 0 RC
10.0 ML
2.667 LW
N
0 -7 M
0 7 L
-7 0 M
7 0 L
S
GR
GS
[0.75 0 0 0.75 189.13568 245.47126] CT
0 1 0 RC
10.0 ML
2.667 LW
N
0 -7 M
0 7 L
-7 0 M
7 0 L
S
GR
GS
[0.75 0 0 0.75 190.06375 245.4833] CT
0 1 0 RC
10.0 ML
2.667 LW
N
0 -7 M
0 7 L
-7 0 M
7 0 L
S
GR
GS
[0.75 0 0 0.75 190.99466 247.75873] CT
0 1 0 RC
10.0 ML
2.667 LW
N
0 -7 M
0 7 L
-7 0 M
7 0 L
S
GR
GS
[0.75 0 0 0.75 191.92557 247.89491] CT
0 1 0 RC
10.0 ML
2.667 LW
N
0 -7 M
0 7 L
-7 0 M
7 0 L
S
GR
GS
[0.75 0 0 0.75 192.85364 247.95708] CT
0 1 0 RC
10.0 ML
2.667 LW
N
0 -7 M
0 7 L
-7 0 M
7 0 L
S
GR
GS
[0.75 0 0 0.75 193.78455 246.68209] CT
0 1 0 RC
10.0 ML
2.667 LW
N
0 -7 M
0 7 L
-7 0 M
7 0 L
S
GR
GS
[0.75 0 0 0.75 195.64636 246.14699] CT
0 1 0 RC
10.0 ML
2.667 LW
N
0 -7 M
0 7 L
-7 0 M
7 0 L
S
GR
GS
[0.75 0 0 0.75 199.36432 245.92197] CT
0 1 0 RC
10.0 ML
2.667 LW
N
0 -7 M
0 7 L
-7 0 M
7 0 L
S
GR
GS
[0.75 0 0 0.75 206.80591 248.72532] CT
0 1 0 RC
10.0 ML
2.667 LW
N
0 -7 M
0 7 L
-7 0 M
7 0 L
S
GR
GS
[0.75 0 0 0.75 221.68625 250.30676] CT
0 1 0 RC
10.0 ML
2.667 LW
N
0 -7 M
0 7 L
-7 0 M
7 0 L
S
GR
GS
[0.75 0 0 0.75 251.44409 250.49464] CT
0 1 0 RC
10.0 ML
2.667 LW
N
0 -7 M
0 7 L
-7 0 M
7 0 L
S
GR
GS
[0.75 0 0 0.75 310.96545 250.5] CT
0 1 0 RC
10.0 ML
2.667 LW
N
0 -7 M
0 7 L
-7 0 M
7 0 L
S
GR
GS
[0.75 0 0 0.75 430.00534 250.5] CT
0 1 0 RC
10.0 ML
2.667 LW
N
0 -7 M
0 7 L
-7 0 M
7 0 L
S
GR
GS
[0.75 0 0 0.75 0 0] CT
1 GC
N
277 181 M
277 59 L
758 59 L
758 181 L
cp
f
GR
GS
[0.75 0 0 0.75 235.5 56.67593] CT
/Helvetica 21.333 F
GS
[1 0 0 1 0 0] CT
0 8.5 moveto 
1 -1 scale
(2014: 2.4mx2.4m, real injection) t 
GR
GR
GS
[0.75 0 0 0.75 0 0] CT
0 0 1 RC
1 LJ
2.667 LW
N
281 75.568 M
311 75.568 L
S
GR
GS
[0.75 0 0 0.75 235.5 78.89198] CT
/Helvetica 21.333 F
GS
[1 0 0 1 0 0] CT
0 8.5 moveto 
1 -1 scale
(2014: 8mx8m, real injection) t 
GR
GR
GS
[0.75 0 0 0.75 0 0] CT
1 0 0 RC
[8 8] 0 setdash
2 LJ
2.667 LW
N
281 105.189 M
311 105.189 L
S
GR
GS
[0.75 0 0 0.75 235.5 101.10802] CT
/Helvetica 21.333 F
GS
[1 0 0 1 0 0] CT
0 8.5 moveto 
1 -1 scale
(2018: 8mx50m, real inj., 2014 parameters) t 
GR
GR
GS
[0.75 0 0 0.75 0 0] CT
[2 2] 0 setdash
2 LJ
2.667 LW
N
281 134.811 M
311 134.811 L
S
GR
GS
[0.75 0 0 0.75 222 101.10802] CT
10.0 ML
2.667 LW
N
6.167 -0.5 M
6.167 -4.182 3.182 -7.167 -0.5 -7.167 C
-4.182 -7.167 -7.167 -4.182 -7.167 -0.5 C
-7.167 3.182 -4.182 6.167 -0.5 6.167 C
3.182 6.167 6.167 3.182 6.167 -0.5 C
S
GR
GS
[0.75 0 0 0.75 235.5 123.32407] CT
/Helvetica 21.333 F
GS
[1 0 0 1 0 0] CT
0 8.5 moveto 
1 -1 scale
(2018: 8mx50m, real inj., Hommel 2015 params.) t 
GR
GR
GS
[0.75 0 0 0.75 0 0] CT
0 1 0 RC
1 LJ
2.667 LW
N
281 164.432 M
311 164.432 L
S
GR
GS
[0.75 0 0 0.75 222 123.32407] CT
0 1 0 RC
10.0 ML
2.667 LW
N
0 -7 M
0 7 L
-7 0 M
7 0 L
S
GR
GS
[0.75 0 0 0.75 0 0] CT
0.149 GC
10.0 ML
0.667 LW
N
277 181 M
277 59 L
758 59 L
758 181 L
cp
S
GR
%%Trailer
%%Pages: 1
%%EOF
