%!PS-Adobe-3.0 EPSF-3.0
%%Creator: (MATLAB, The Mathworks, Inc. Version 9.1.0.441655 \(R2016b\). Operating System: Linux)
%%Title: /temp/hommel/results/Gorgas_promo_RainerSpecialIssue/newPlots_forRainerSpecialIssue/gorgas_permeability_wInit.eps
%%CreationDate: 2018-02-14T14:47:32
%%Pages: (atend)
%%BoundingBox: 0 0 750 375
%%LanguageLevel: 3
%%EndComments
%%BeginProlog
%%BeginResource: procset (Apache XML Graphics Std ProcSet) 1.2 0
%%Version: 1.2 0
%%Copyright: (Copyright 2001-2003,2010 The Apache Software Foundation. License terms: http://www.apache.org/licenses/LICENSE-2.0)
/bd{bind def}bind def
/ld{load def}bd
/GR/grestore ld
/M/moveto ld
/LJ/setlinejoin ld
/C/curveto ld
/f/fill ld
/LW/setlinewidth ld
/GC/setgray ld
/t/show ld
/N/newpath ld
/CT/concat ld
/cp/closepath ld
/S/stroke ld
/L/lineto ld
/CC/setcmykcolor ld
/A/ashow ld
/GS/gsave ld
/RC/setrgbcolor ld
/RM/rmoveto ld
/ML/setmiterlimit ld
/re {4 2 roll M
1 index 0 rlineto
0 exch rlineto
neg 0 rlineto
cp } bd
/_ctm matrix def
/_tm matrix def
/BT { _ctm currentmatrix pop matrix _tm copy pop 0 0 moveto } bd
/ET { _ctm setmatrix } bd
/iTm { _ctm setmatrix _tm concat } bd
/Tm { _tm astore pop iTm 0 0 moveto } bd
/ux 0.0 def
/uy 0.0 def
/F {
  /Tp exch def
  /Tf exch def
  Tf findfont Tp scalefont setfont
  /cf Tf def  /cs Tp def
} bd
/ULS {currentpoint /uy exch def /ux exch def} bd
/ULE {
  /Tcx currentpoint pop def
  gsave
  newpath
  cf findfont cs scalefont dup
  /FontMatrix get 0 get /Ts exch def /FontInfo get dup
  /UnderlinePosition get Ts mul /To exch def
  /UnderlineThickness get Ts mul /Tt exch def
  ux uy To add moveto  Tcx uy To add lineto
  Tt setlinewidth stroke
  grestore
} bd
/OLE {
  /Tcx currentpoint pop def
  gsave
  newpath
  cf findfont cs scalefont dup
  /FontMatrix get 0 get /Ts exch def /FontInfo get dup
  /UnderlinePosition get Ts mul /To exch def
  /UnderlineThickness get Ts mul /Tt exch def
  ux uy To add cs add moveto Tcx uy To add cs add lineto
  Tt setlinewidth stroke
  grestore
} bd
/SOE {
  /Tcx currentpoint pop def
  gsave
  newpath
  cf findfont cs scalefont dup
  /FontMatrix get 0 get /Ts exch def /FontInfo get dup
  /UnderlinePosition get Ts mul /To exch def
  /UnderlineThickness get Ts mul /Tt exch def
  ux uy To add cs 10 mul 26 idiv add moveto Tcx uy To add cs 10 mul 26 idiv add lineto
  Tt setlinewidth stroke
  grestore
} bd
/QT {
/Y22 exch store
/X22 exch store
/Y21 exch store
/X21 exch store
currentpoint
/Y21 load 2 mul add 3 div exch
/X21 load 2 mul add 3 div exch
/X21 load 2 mul /X22 load add 3 div
/Y21 load 2 mul /Y22 load add 3 div
/X22 load /Y22 load curveto
} bd
/SSPD {
dup length /d exch dict def
{
/v exch def
/k exch def
currentpagedevice k known {
/cpdv currentpagedevice k get def
v cpdv ne {
/upd false def
/nullv v type /nulltype eq def
/nullcpdv cpdv type /nulltype eq def
nullv nullcpdv or
{
/upd true def
} {
/sametype v type cpdv type eq def
sametype {
v type /arraytype eq {
/vlen v length def
/cpdvlen cpdv length def
vlen cpdvlen eq {
0 1 vlen 1 sub {
/i exch def
/obj v i get def
/cpdobj cpdv i get def
obj cpdobj ne {
/upd true def
exit
} if
} for
} {
/upd true def
} ifelse
} {
v type /dicttype eq {
v {
/dv exch def
/dk exch def
/cpddv cpdv dk get def
dv cpddv ne {
/upd true def
exit
} if
} forall
} {
/upd true def
} ifelse
} ifelse
} if
} ifelse
upd true eq {
d k v put
} if
} if
} if
} forall
d length 0 gt {
d setpagedevice
} if
} bd
/RE { % /NewFontName [NewEncodingArray] /FontName RE -
  findfont dup length dict begin
  {
    1 index /FID ne
    {def} {pop pop} ifelse
  } forall
  /Encoding exch def
  /FontName 1 index def
  currentdict definefont pop
  end
} bind def
%%EndResource
%%BeginResource: procset (Apache XML Graphics EPS ProcSet) 1.0 0
%%Version: 1.0 0
%%Copyright: (Copyright 2002-2003 The Apache Software Foundation. License terms: http://www.apache.org/licenses/LICENSE-2.0)
/BeginEPSF { %def
/b4_Inc_state save def         % Save state for cleanup
/dict_count countdictstack def % Count objects on dict stack
/op_count count 1 sub def      % Count objects on operand stack
userdict begin                 % Push userdict on dict stack
/showpage { } def              % Redefine showpage, { } = null proc
0 setgray 0 setlinecap         % Prepare graphics state
1 setlinewidth 0 setlinejoin
10 setmiterlimit [ ] 0 setdash newpath
/languagelevel where           % If level not equal to 1 then
{pop languagelevel             % set strokeadjust and
1 ne                           % overprint to their defaults.
{false setstrokeadjust false setoverprint
} if
} if
} bd
/EndEPSF { %def
count op_count sub {pop} repeat            % Clean up stacks
countdictstack dict_count sub {end} repeat
b4_Inc_state restore
} bd
%%EndResource
%FOPBeginFontDict
%%IncludeResource: font Courier-Bold
%%IncludeResource: font Helvetica
%%IncludeResource: font Courier-BoldOblique
%%IncludeResource: font Courier-Oblique
%%IncludeResource: font Times-Roman
%%IncludeResource: font Helvetica-BoldOblique
%%IncludeResource: font Helvetica-Bold
%%IncludeResource: font Helvetica-Oblique
%%IncludeResource: font Times-BoldItalic
%%IncludeResource: font Courier
%%IncludeResource: font Times-Italic
%%IncludeResource: font Times-Bold
%%IncludeResource: font Symbol
%%IncludeResource: font ZapfDingbats
%FOPEndFontDict
%%BeginResource: encoding WinAnsiEncoding
/WinAnsiEncoding [
/.notdef /.notdef /.notdef /.notdef /.notdef
/.notdef /.notdef /.notdef /.notdef /.notdef
/.notdef /.notdef /.notdef /.notdef /.notdef
/.notdef /.notdef /.notdef /.notdef /.notdef
/.notdef /.notdef /.notdef /.notdef /.notdef
/.notdef /.notdef /.notdef /.notdef /.notdef
/.notdef /.notdef /space /exclam /quotedbl
/numbersign /dollar /percent /ampersand /quotesingle
/parenleft /parenright /asterisk /plus /comma
/hyphen /period /slash /zero /one
/two /three /four /five /six
/seven /eight /nine /colon /semicolon
/less /equal /greater /question /at
/A /B /C /D /E
/F /G /H /I /J
/K /L /M /N /O
/P /Q /R /S /T
/U /V /W /X /Y
/Z /bracketleft /backslash /bracketright /asciicircum
/underscore /quoteleft /a /b /c
/d /e /f /g /h
/i /j /k /l /m
/n /o /p /q /r
/s /t /u /v /w
/x /y /z /braceleft /bar
/braceright /asciitilde /bullet /Euro /bullet
/quotesinglbase /florin /quotedblbase /ellipsis /dagger
/daggerdbl /circumflex /perthousand /Scaron /guilsinglleft
/OE /bullet /Zcaron /bullet /bullet
/quoteleft /quoteright /quotedblleft /quotedblright /bullet
/endash /emdash /asciitilde /trademark /scaron
/guilsinglright /oe /bullet /zcaron /Ydieresis
/space /exclamdown /cent /sterling /currency
/yen /brokenbar /section /dieresis /copyright
/ordfeminine /guillemotleft /logicalnot /sfthyphen /registered
/macron /degree /plusminus /twosuperior /threesuperior
/acute /mu /paragraph /middot /cedilla
/onesuperior /ordmasculine /guillemotright /onequarter /onehalf
/threequarters /questiondown /Agrave /Aacute /Acircumflex
/Atilde /Adieresis /Aring /AE /Ccedilla
/Egrave /Eacute /Ecircumflex /Edieresis /Igrave
/Iacute /Icircumflex /Idieresis /Eth /Ntilde
/Ograve /Oacute /Ocircumflex /Otilde /Odieresis
/multiply /Oslash /Ugrave /Uacute /Ucircumflex
/Udieresis /Yacute /Thorn /germandbls /agrave
/aacute /acircumflex /atilde /adieresis /aring
/ae /ccedilla /egrave /eacute /ecircumflex
/edieresis /igrave /iacute /icircumflex /idieresis
/eth /ntilde /ograve /oacute /ocircumflex
/otilde /odieresis /divide /oslash /ugrave
/uacute /ucircumflex /udieresis /yacute /thorn
/ydieresis
] def
%%EndResource
%FOPBeginFontReencode
/Courier-Bold findfont
dup length dict begin
  {1 index /FID ne {def} {pop pop} ifelse} forall
  /Encoding WinAnsiEncoding def
  currentdict
end
/Courier-Bold exch definefont pop
/Helvetica findfont
dup length dict begin
  {1 index /FID ne {def} {pop pop} ifelse} forall
  /Encoding WinAnsiEncoding def
  currentdict
end
/Helvetica exch definefont pop
/Courier-BoldOblique findfont
dup length dict begin
  {1 index /FID ne {def} {pop pop} ifelse} forall
  /Encoding WinAnsiEncoding def
  currentdict
end
/Courier-BoldOblique exch definefont pop
/Courier-Oblique findfont
dup length dict begin
  {1 index /FID ne {def} {pop pop} ifelse} forall
  /Encoding WinAnsiEncoding def
  currentdict
end
/Courier-Oblique exch definefont pop
/Times-Roman findfont
dup length dict begin
  {1 index /FID ne {def} {pop pop} ifelse} forall
  /Encoding WinAnsiEncoding def
  currentdict
end
/Times-Roman exch definefont pop
/Helvetica-BoldOblique findfont
dup length dict begin
  {1 index /FID ne {def} {pop pop} ifelse} forall
  /Encoding WinAnsiEncoding def
  currentdict
end
/Helvetica-BoldOblique exch definefont pop
/Helvetica-Bold findfont
dup length dict begin
  {1 index /FID ne {def} {pop pop} ifelse} forall
  /Encoding WinAnsiEncoding def
  currentdict
end
/Helvetica-Bold exch definefont pop
/Helvetica-Oblique findfont
dup length dict begin
  {1 index /FID ne {def} {pop pop} ifelse} forall
  /Encoding WinAnsiEncoding def
  currentdict
end
/Helvetica-Oblique exch definefont pop
/Times-BoldItalic findfont
dup length dict begin
  {1 index /FID ne {def} {pop pop} ifelse} forall
  /Encoding WinAnsiEncoding def
  currentdict
end
/Times-BoldItalic exch definefont pop
/Courier findfont
dup length dict begin
  {1 index /FID ne {def} {pop pop} ifelse} forall
  /Encoding WinAnsiEncoding def
  currentdict
end
/Courier exch definefont pop
/Times-Italic findfont
dup length dict begin
  {1 index /FID ne {def} {pop pop} ifelse} forall
  /Encoding WinAnsiEncoding def
  currentdict
end
/Times-Italic exch definefont pop
/Times-Bold findfont
dup length dict begin
  {1 index /FID ne {def} {pop pop} ifelse} forall
  /Encoding WinAnsiEncoding def
  currentdict
end
/Times-Bold exch definefont pop
%FOPEndFontReencode
%%EndProlog
%%Page: 1 1
%%PageBoundingBox: 0 0 750 375
%%BeginPageSetup
[1 0 0 -1 0 375] CT
%%EndPageSetup
GS
[0.75 0 0 0.75 0 0] CT
1 GC
N
0 0 1000 500 re
f
GR
GS
[0.75 0 0 0.75 0 0] CT
1 GC
N
0 0 1000 500 re
f
GR
GS
[0.75 0 0 0.75 0 0] CT
1 GC
N
130 431 M
905 431 L
905 37 L
130 37 L
cp
f
GR
GS
[0.75 0 0 0.75 0 0] CT
0.149 GC
2 setlinecap
1 LJ
0.667 LW
N
130 431 M
905 431 L
S
GR
GS
[0.75 0 0 0.75 0 0] CT
0.149 GC
2 setlinecap
1 LJ
0.667 LW
N
130 37 M
905 37 L
S
GR
GS
[0.75 0 0 0.75 0 0] CT
0.149 GC
2 setlinecap
1 LJ
0.667 LW
N
206.802 431 M
206.802 423.25 L
S
GR
GS
[0.75 0 0 0.75 0 0] CT
0.149 GC
2 setlinecap
1 LJ
0.667 LW
N
306.544 431 M
306.544 423.25 L
S
GR
GS
[0.75 0 0 0.75 0 0] CT
0.149 GC
2 setlinecap
1 LJ
0.667 LW
N
406.287 431 M
406.287 423.25 L
S
GR
GS
[0.75 0 0 0.75 0 0] CT
0.149 GC
2 setlinecap
1 LJ
0.667 LW
N
506.03 431 M
506.03 423.25 L
S
GR
GS
[0.75 0 0 0.75 0 0] CT
0.149 GC
2 setlinecap
1 LJ
0.667 LW
N
605.772 431 M
605.772 423.25 L
S
GR
GS
[0.75 0 0 0.75 0 0] CT
0.149 GC
2 setlinecap
1 LJ
0.667 LW
N
705.515 431 M
705.515 423.25 L
S
GR
GS
[0.75 0 0 0.75 0 0] CT
0.149 GC
2 setlinecap
1 LJ
0.667 LW
N
805.257 431 M
805.257 423.25 L
S
GR
GS
[0.75 0 0 0.75 0 0] CT
0.149 GC
2 setlinecap
1 LJ
0.667 LW
N
905 431 M
905 423.25 L
S
GR
GS
[0.75 0 0 0.75 0 0] CT
0.149 GC
2 setlinecap
1 LJ
0.667 LW
N
206.802 37 M
206.802 44.75 L
S
GR
GS
[0.75 0 0 0.75 0 0] CT
0.149 GC
2 setlinecap
1 LJ
0.667 LW
N
306.544 37 M
306.544 44.75 L
S
GR
GS
[0.75 0 0 0.75 0 0] CT
0.149 GC
2 setlinecap
1 LJ
0.667 LW
N
406.287 37 M
406.287 44.75 L
S
GR
GS
[0.75 0 0 0.75 0 0] CT
0.149 GC
2 setlinecap
1 LJ
0.667 LW
N
506.03 37 M
506.03 44.75 L
S
GR
GS
[0.75 0 0 0.75 0 0] CT
0.149 GC
2 setlinecap
1 LJ
0.667 LW
N
605.772 37 M
605.772 44.75 L
S
GR
GS
[0.75 0 0 0.75 0 0] CT
0.149 GC
2 setlinecap
1 LJ
0.667 LW
N
705.515 37 M
705.515 44.75 L
S
GR
GS
[0.75 0 0 0.75 0 0] CT
0.149 GC
2 setlinecap
1 LJ
0.667 LW
N
805.257 37 M
805.257 44.75 L
S
GR
GS
[0.75 0 0 0.75 0 0] CT
0.149 GC
2 setlinecap
1 LJ
0.667 LW
N
905 37 M
905 44.75 L
S
GR
GS
[0.75 0 0 0.75 155.10135 328.44999] CT
0.149 GC
/Helvetica 21.333 F
GS
[1 0 0 1 0 0] CT
-6 23 moveto 
1 -1 scale
(1) t 
GR
GR
GS
[0.75 0 0 0.75 229.9083 328.44999] CT
0.149 GC
/Helvetica 21.333 F
GS
[1 0 0 1 0 0] CT
-6 23 moveto 
1 -1 scale
(2) t 
GR
GR
GS
[0.75 0 0 0.75 304.71524 328.44999] CT
0.149 GC
/Helvetica 21.333 F
GS
[1 0 0 1 0 0] CT
-6 23 moveto 
1 -1 scale
(3) t 
GR
GR
GS
[0.75 0 0 0.75 379.5222 328.44999] CT
0.149 GC
/Helvetica 21.333 F
GS
[1 0 0 1 0 0] CT
-6 23 moveto 
1 -1 scale
(4) t 
GR
GR
GS
[0.75 0 0 0.75 454.32912 328.44999] CT
0.149 GC
/Helvetica 21.333 F
GS
[1 0 0 1 0 0] CT
-6 23 moveto 
1 -1 scale
(5) t 
GR
GR
GS
[0.75 0 0 0.75 529.13608 328.44999] CT
0.149 GC
/Helvetica 21.333 F
GS
[1 0 0 1 0 0] CT
-6 23 moveto 
1 -1 scale
(6) t 
GR
GR
GS
[0.75 0 0 0.75 603.94304 328.44999] CT
0.149 GC
/Helvetica 21.333 F
GS
[1 0 0 1 0 0] CT
-6 23 moveto 
1 -1 scale
(7) t 
GR
GR
GS
[0.75 0 0 0.75 678.75 328.44999] CT
0.149 GC
/Helvetica 21.333 F
GS
[1 0 0 1 0 0] CT
-6 23 moveto 
1 -1 scale
(8) t 
GR
GR
GS
[0.75 0 0 0.75 388.12527 351.2] CT
0.149 GC
/Helvetica 23.467 F
GS
[1 0 0 1 0 0] CT
-54 25 moveto 
1 -1 scale
(Radius [m]) t 
GR
GR
GS
[0.75 0 0 0.75 0 0] CT
0.149 GC
2 setlinecap
1 LJ
0.667 LW
N
130 431 M
130 37 L
S
GR
GS
[0.75 0 0 0.75 0 0] CT
0.149 GC
2 setlinecap
1 LJ
0.667 LW
N
905 431 M
905 37 L
S
GR
GS
[0.75 0 0 0.75 0 0] CT
0.149 GC
2 setlinecap
1 LJ
0.667 LW
N
130 431 M
137.75 431 L
S
GR
GS
[0.75 0 0 0.75 0 0] CT
0.149 GC
2 setlinecap
1 LJ
0.667 LW
N
130 321.556 M
137.75 321.556 L
S
GR
GS
[0.75 0 0 0.75 0 0] CT
0.149 GC
2 setlinecap
1 LJ
0.667 LW
N
130 212.111 M
137.75 212.111 L
S
GR
GS
[0.75 0 0 0.75 0 0] CT
0.149 GC
2 setlinecap
1 LJ
0.667 LW
N
130 102.667 M
137.75 102.667 L
S
GR
GS
[0.75 0 0 0.75 0 0] CT
0.149 GC
2 setlinecap
1 LJ
0.667 LW
N
905 431 M
897.25 431 L
S
GR
GS
[0.75 0 0 0.75 0 0] CT
0.149 GC
2 setlinecap
1 LJ
0.667 LW
N
905 321.556 M
897.25 321.556 L
S
GR
GS
[0.75 0 0 0.75 0 0] CT
0.149 GC
2 setlinecap
1 LJ
0.667 LW
N
905 212.111 M
897.25 212.111 L
S
GR
GS
[0.75 0 0 0.75 0 0] CT
0.149 GC
2 setlinecap
1 LJ
0.667 LW
N
905 102.667 M
897.25 102.667 L
S
GR
GS
[0.75 0 0 0.75 92.3 323.25] CT
0.149 GC
/Helvetica 21.333 F
GS
[1 0 0 1 0 0] CT
-12 8.5 moveto 
1 -1 scale
(0) t 
GR
GR
GS
[0.75 0 0 0.75 92.3 241.16666] CT
0.149 GC
/Helvetica 21.333 F
GS
[1 0 0 1 0 0] CT
-30 8.5 moveto 
1 -1 scale
(0.5) t 
GR
GR
GS
[0.75 0 0 0.75 92.3 159.08332] CT
0.149 GC
/Helvetica 21.333 F
GS
[1 0 0 1 0 0] CT
-12 8.5 moveto 
1 -1 scale
(1) t 
GR
GR
GS
[0.75 0 0 0.75 92.3 77] CT
0.149 GC
/Helvetica 21.333 F
GS
[1 0 0 1 0 0] CT
-30 8.5 moveto 
1 -1 scale
(1.5) t 
GR
GR
GS
[0 -0.75 0.75 0 61.5 242.25] CT
0.149 GC
/Helvetica 23.467 F
GS
[1 0 0 1 0 0] CT
0 0 moveto 
1 -1 scale
(Permeability [m) t 
GR
GR
GS
[0 -0.75 0.75 0 53.25 122.25] CT
0.149 GC
/Helvetica 18.773 F
GS
[1 0 0 1 0 0] CT
0 0 moveto 
1 -1 scale
(2) t 
GR
GR
GS
[0 -0.75 0.75 0 61.5 114] CT
0.149 GC
/Helvetica 23.467 F
GS
[1 0 0 1 0 0] CT
0 0 moveto 
1 -1 scale
(]) t 
GR
GR
GS
[0.75 0 0 0.75 97.5 23.25] CT
0.149 GC
N
3.094 -0.609 M
3.094 -0.766 3.188 -0.906 QT
7.563 -5.25 L
3.188 -9.625 L
3.094 -9.719 3.094 -9.891 QT
3.094 -10.047 3.211 -10.18 QT
3.328 -10.313 3.5 -10.313 QT
3.656 -10.313 3.828 -10.188 QT
8.172 -5.828 L
12.5 -10.188 L
12.672 -10.313 12.813 -10.313 QT
12.984 -10.313 13.109 -10.188 QT
13.234 -10.063 13.234 -9.891 QT
13.234 -9.719 13.125 -9.625 QT
8.75 -5.25 L
13.125 -0.906 L
13.234 -0.766 13.234 -0.609 QT
13.234 -0.438 13.109 -0.313 QT
12.984 -0.188 12.813 -0.188 QT
12.656 -0.188 12.5 -0.344 QT
8.172 -4.672 L
3.828 -0.344 L
3.672 -0.188 3.5 -0.188 QT
3.328 -0.188 3.211 -0.32 QT
3.094 -0.453 3.094 -0.609 QT
cp
f
GR
GS
[0.75 0 0 0.75 110.25 23.25] CT
0.149 GC
/Helvetica 21.333 F
GS
[1 0 0 1 0 0] CT
0 0 moveto 
1 -1 scale
(10) t 
GR
GR
GS
[0.75 0 0 0.75 128.25 15.75] CT
0.149 GC
/Helvetica 17.067 F
GS
[1 0 0 1 0 0] CT
0 0 moveto 
1 -1 scale
(-12) t 
GR
GR
GS
[0.75 0 0 0.75 0 0] CT
1 0 1 RC
1 LJ
2.667 LW
N
129.908 70.928 M
139.835 70.928 L
150.806 70.928 L
162.875 70.928 L
176.151 70.928 L
190.754 70.928 L
206.818 70.928 L
224.488 70.928 L
243.925 70.928 L
265.306 70.928 L
288.824 70.928 L
314.695 70.928 L
343.153 70.928 L
374.456 70.928 L
408.89 70.928 L
446.768 70.928 L
488.432 70.928 L
534.264 428.624 L
584.679 428.624 L
640.135 428.624 L
701.136 428.624 L
768.238 428.624 L
842.05 428.624 L
905.092 428.624 L
S
GR
GS
[0.75 0 0 0.75 0 0] CT
1 0 0 RC
1 LJ
2.667 LW
N
129.908 346.138 M
139.835 407.419 L
150.806 413.764 L
162.875 421.629 L
176.151 425.576 L
190.754 428.632 L
206.818 428.804 L
224.488 428.105 L
243.925 427.419 L
265.306 424.473 L
288.824 420.222 L
314.695 413.59 L
343.153 400.779 L
374.456 361.675 L
408.89 232.84 L
446.768 196.791 L
488.432 167.27 L
534.264 428.928 L
584.679 428.701 L
640.135 428.629 L
701.136 428.625 L
768.238 428.624 L
842.05 428.624 L
905.092 428.624 L
S
GR
GS
[0.75 0 0 0.75 0 0] CT
0 1 0 RC
1 LJ
2.667 LW
N
129.908 430.721 M
139.835 429.008 L
150.806 429.53 L
162.875 428.797 L
176.151 425.675 L
190.754 408.79 L
206.818 381.785 L
224.488 336.456 L
243.925 279.666 L
265.306 229.239 L
288.824 193.569 L
314.695 161.46 L
343.153 131.562 L
374.456 118.943 L
408.89 114.474 L
446.768 97.05 L
488.432 83.586 L
534.264 428.648 L
584.679 428.626 L
640.135 428.624 L
701.136 428.624 L
768.238 428.624 L
842.05 428.624 L
905.092 428.624 L
S
GR
GS
[0.75 0 0 0.75 0 0] CT
0 0 1 RC
1 LJ
2.667 LW
N
129.908 430.632 M
139.835 377.914 L
150.806 377.447 L
162.875 265.542 L
176.151 236.302 L
190.754 212.13 L
206.818 187.777 L
224.488 162.48 L
243.925 146.105 L
265.306 137.363 L
288.824 125.611 L
314.695 107.57 L
343.153 96.899 L
374.456 88.505 L
408.89 82.973 L
446.768 79.086 L
488.432 75.518 L
534.264 428.624 L
584.679 428.624 L
640.135 428.624 L
701.136 428.624 L
768.238 428.624 L
842.05 428.624 L
905.092 428.624 L
S
GR
GS
[0.75 0 0 0.75 0 0] CT
1 0 0 RC
[8 8] 0 setdash
2 LJ
2.667 LW
N
129.908 248.815 M
130.858 237.789 L
132.105 240.029 L
133.663 253.113 L
135.611 274.664 L
138.046 301.055 L
141.09 318.072 L
144.895 348.738 L
149.651 371.065 L
155.596 398.108 L
163.028 410.024 L
172.317 421.762 L
183.929 427.657 L
198.443 430.977 L
216.586 430.455 L
239.265 425.185 L
267.614 430.903 L
303.049 430.069 L
347.344 429.159 L
369.243 428.624 L
S
GR
GS
[0.75 0 0 0.75 0 0] CT
0 1 0 RC
[8 8] 0 setdash
2 LJ
2.667 LW
N
129.908 430.431 M
130.858 430.277 L
132.105 430.08 L
133.663 430.219 L
135.611 430.269 L
138.046 430.129 L
141.09 430.71 L
144.895 429.62 L
149.651 427.101 L
155.596 428.264 L
163.028 426.834 L
172.317 423.749 L
183.929 416.677 L
198.443 404.874 L
216.586 368.095 L
239.265 253.449 L
267.614 429.004 L
303.049 428.644 L
347.344 428.628 L
369.243 428.624 L
S
GR
GS
[0.75 0 0 0.75 0 0] CT
0 0 1 RC
[8 8] 0 setdash
2 LJ
2.667 LW
N
129.908 426.89 M
130.858 425.979 L
132.105 419.575 L
133.663 411.112 L
135.611 400.876 L
138.046 384.107 L
141.09 364.281 L
144.895 342.218 L
149.651 331.647 L
155.596 336.075 L
163.028 309.672 L
172.317 289.763 L
183.929 262.913 L
198.443 213.553 L
216.586 168.047 L
239.265 144.218 L
267.614 428.82 L
303.049 428.663 L
347.344 428.63 L
369.243 428.624 L
S
GR
GS
[0.75 0 0 0.75 0 0] CT
[2 2] 0 setdash
2 LJ
2.667 LW
N
129.908 369.184 M
130.858 393.337 L
133.351 410.156 L
139.585 402.765 L
155.17 351.958 L
194.132 250.274 L
291.537 121.485 L
535.049 428.624 L
905.092 428.624 L
S
GR
GS
[0.75 0 0 0.75 98.14334 295.00266] CT
10.0 ML
2.667 LW
N
6.167 -0.5 M
6.167 -4.182 3.182 -7.167 -0.5 -7.167 C
-4.182 -7.167 -7.167 -4.182 -7.167 -0.5 C
-7.167 3.182 -4.182 6.167 -0.5 6.167 C
3.182 6.167 6.167 3.182 6.167 -0.5 C
S
GR
GS
[0.75 0 0 0.75 100.01351 307.61716] CT
10.0 ML
2.667 LW
N
6.167 -0.5 M
6.167 -4.182 3.182 -7.167 -0.5 -7.167 C
-4.182 -7.167 -7.167 -4.182 -7.167 -0.5 C
-7.167 3.182 -4.182 6.167 -0.5 6.167 C
3.182 6.167 6.167 3.182 6.167 -0.5 C
S
GR
GS
[0.75 0 0 0.75 104.68895 302.07397] CT
10.0 ML
2.667 LW
N
6.167 -0.5 M
6.167 -4.182 3.182 -7.167 -0.5 -7.167 C
-4.182 -7.167 -7.167 -4.182 -7.167 -0.5 C
-7.167 3.182 -4.182 6.167 -0.5 6.167 C
3.182 6.167 6.167 3.182 6.167 -0.5 C
S
GR
GS
[0.75 0 0 0.75 116.37753 263.96876] CT
10.0 ML
2.667 LW
N
6.167 -0.5 M
6.167 -4.182 3.182 -7.167 -0.5 -7.167 C
-4.182 -7.167 -7.167 -4.182 -7.167 -0.5 C
-7.167 3.182 -4.182 6.167 -0.5 6.167 C
3.182 6.167 6.167 3.182 6.167 -0.5 C
S
GR
GS
[0.75 0 0 0.75 145.599 187.70514] CT
10.0 ML
2.667 LW
N
6.167 -0.5 M
6.167 -4.182 3.182 -7.167 -0.5 -7.167 C
-4.182 -7.167 -7.167 -4.182 -7.167 -0.5 C
-7.167 3.182 -4.182 6.167 -0.5 6.167 C
3.182 6.167 6.167 3.182 6.167 -0.5 C
S
GR
GS
[0.75 0 0 0.75 218.65283 91.11341] CT
10.0 ML
2.667 LW
N
6.167 -0.5 M
6.167 -4.182 3.182 -7.167 -0.5 -7.167 C
-4.182 -7.167 -7.167 -4.182 -7.167 -0.5 C
-7.167 3.182 -4.182 6.167 -0.5 6.167 C
3.182 6.167 6.167 3.182 6.167 -0.5 C
S
GR
GS
[0.75 0 0 0.75 401.28653 321.46793] CT
10.0 ML
2.667 LW
N
6.167 -0.5 M
6.167 -4.182 3.182 -7.167 -0.5 -7.167 C
-4.182 -7.167 -7.167 -4.182 -7.167 -0.5 C
-7.167 3.182 -4.182 6.167 -0.5 6.167 C
3.182 6.167 6.167 3.182 6.167 -0.5 C
S
GR
GS
[0.75 0 0 0.75 0 0] CT
[2 2] 0 setdash
2 LJ
2.667 LW
N
129.908 98.008 M
130.858 106 L
133.351 116.251 L
139.585 119.692 L
155.17 124.562 L
194.132 113.482 L
291.537 87.688 L
535.049 428.624 L
905.092 428.624 L
S
GR
GS
[0.75 0 0 0.75 98.14334 79.50027] CT
10.0 ML
2.667 LW
N
0 -7 M
0 7 L
-7 0 M
7 0 L
S
GR
GS
[0.75 0 0 0.75 100.01351 87.18819] CT
10.0 ML
2.667 LW
N
0 -7 M
0 7 L
-7 0 M
7 0 L
S
GR
GS
[0.75 0 0 0.75 104.68895 89.76889] CT
10.0 ML
2.667 LW
N
0 -7 M
0 7 L
-7 0 M
7 0 L
S
GR
GS
[0.75 0 0 0.75 116.37753 93.42159] CT
10.0 ML
2.667 LW
N
0 -7 M
0 7 L
-7 0 M
7 0 L
S
GR
GS
[0.75 0 0 0.75 145.599 85.11147] CT
10.0 ML
2.667 LW
N
0 -7 M
0 7 L
-7 0 M
7 0 L
S
GR
GS
[0.75 0 0 0.75 218.65283 65.76608] CT
10.0 ML
2.667 LW
N
0 -7 M
0 7 L
-7 0 M
7 0 L
S
GR
GS
[0.75 0 0 0.75 401.28653 321.46788] CT
10.0 ML
2.667 LW
N
0 -7 M
0 7 L
-7 0 M
7 0 L
S
GR
GS
[0.75 0 0 0.75 0 0] CT
1 GC
N
481 391 M
481 122 L
993 122 L
993 391 L
cp
f
GR
GS
[0.75 0 0 0.75 402 103.875] CT
/Helvetica 21.333 F
GS
[1 0 0 1 0 0] CT
0 8.5 moveto 
1 -1 scale
(Initial permeability for 8mx8m scenario) t 
GR
GR
GS
[0.75 0 0 0.75 0 0] CT
1 0 1 RC
1 LJ
2.667 LW
N
503 138.5 M
533 138.5 L
S
GR
GS
[0.75 0 0 0.75 402 126] CT
/Helvetica 21.333 F
GS
[1 0 0 1 0 0] CT
0 8.5 moveto 
1 -1 scale
(2014: 8mx8m, simple inj.) t 
GR
GR
GS
[0.75 0 0 0.75 0 0] CT
1 0 0 RC
1 LJ
2.667 LW
N
503 168 M
533 168 L
S
GR
GS
[0.75 0 0 0.75 402 148.125] CT
/Helvetica 21.333 F
GS
[1 0 0 1 0 0] CT
0 8.5 moveto 
1 -1 scale
(2014: 8mx8m, ideal inj.) t 
GR
GR
GS
[0.75 0 0 0.75 0 0] CT
0 1 0 RC
1 LJ
2.667 LW
N
503 197.5 M
533 197.5 L
S
GR
GS
[0.75 0 0 0.75 402 170.25] CT
/Helvetica 21.333 F
GS
[1 0 0 1 0 0] CT
0 8.5 moveto 
1 -1 scale
(2014: 8mx8m, real inj.) t 
GR
GR
GS
[0.75 0 0 0.75 0 0] CT
0 0 1 RC
1 LJ
2.667 LW
N
503 227 M
533 227 L
S
GR
GS
[0.75 0 0 0.75 402 192.375] CT
/Helvetica 21.333 F
GS
[1 0 0 1 0 0] CT
0 8.5 moveto 
1 -1 scale
(2014: 2.4mx2.4m, simple inj.) t 
GR
GR
GS
[0.75 0 0 0.75 0 0] CT
1 0 0 RC
[8 8] 0 setdash
2 LJ
2.667 LW
N
503 256.5 M
533 256.5 L
S
GR
GS
[0.75 0 0 0.75 402 214.5] CT
/Helvetica 21.333 F
GS
[1 0 0 1 0 0] CT
0 8.5 moveto 
1 -1 scale
(2014: 2.4mx2.4m, ideal inj.) t 
GR
GR
GS
[0.75 0 0 0.75 0 0] CT
0 1 0 RC
[8 8] 0 setdash
2 LJ
2.667 LW
N
503 286 M
533 286 L
S
GR
GS
[0.75 0 0 0.75 402 236.625] CT
/Helvetica 21.333 F
GS
[1 0 0 1 0 0] CT
0 8.5 moveto 
1 -1 scale
(2014: 2.4mx2.4m, real inj.) t 
GR
GR
GS
[0.75 0 0 0.75 0 0] CT
0 0 1 RC
[8 8] 0 setdash
2 LJ
2.667 LW
N
503 315.5 M
533 315.5 L
S
GR
GS
[0.75 0 0 0.75 402 258.75] CT
/Helvetica 21.333 F
GS
[1 0 0 1 0 0] CT
0 8.5 moveto 
1 -1 scale
(2018: 8mx50m, real inj. with 2014 parameters) t 
GR
GR
GS
[0.75 0 0 0.75 0 0] CT
[2 2] 0 setdash
2 LJ
2.667 LW
N
503 345 M
533 345 L
S
GR
GS
[0.75 0 0 0.75 388.5 258.75] CT
10.0 ML
2.667 LW
N
6.167 -0.5 M
6.167 -4.182 3.182 -7.167 -0.5 -7.167 C
-4.182 -7.167 -7.167 -4.182 -7.167 -0.5 C
-7.167 3.182 -4.182 6.167 -0.5 6.167 C
3.182 6.167 6.167 3.182 6.167 -0.5 C
S
GR
GS
[0.75 0 0 0.75 402 280.875] CT
/Helvetica 21.333 F
GS
[1 0 0 1 0 0] CT
0 8.5 moveto 
1 -1 scale
(2018: 8mx50m, real inj., Hommel 2015 params) t 
GR
GR
GS
[0.75 0 0 0.75 0 0] CT
[2 2] 0 setdash
2 LJ
2.667 LW
N
503 374.5 M
533 374.5 L
S
GR
GS
[0.75 0 0 0.75 388.5 280.875] CT
10.0 ML
2.667 LW
N
0 -7 M
0 7 L
-7 0 M
7 0 L
S
GR
GS
[0.75 0 0 0.75 0 0] CT
0.149 GC
10.0 ML
0.667 LW
N
481 391 M
481 122 L
993 122 L
993 391 L
cp
S
GR
%%Trailer
%%Pages: 1
%%EOF
