%!PS-Adobe-3.0 EPSF-3.0
%%Creator: (MATLAB, The Mathworks, Inc. Version 9.1.0.441655 \(R2016b\). Operating System: Linux)
%%Title: /temp/hommel/results/Gorgas_promo_RainerSpecialIssue/newPlots_forRainerSpecialIssue/gorgas_porosity.eps
%%CreationDate: 2018-02-05T09:34:07
%%Pages: (atend)
%%BoundingBox: 0 0 750 375
%%LanguageLevel: 3
%%EndComments
%%BeginProlog
%%BeginResource: procset (Apache XML Graphics Std ProcSet) 1.2 0
%%Version: 1.2 0
%%Copyright: (Copyright 2001-2003,2010 The Apache Software Foundation. License terms: http://www.apache.org/licenses/LICENSE-2.0)
/bd{bind def}bind def
/ld{load def}bd
/GR/grestore ld
/M/moveto ld
/LJ/setlinejoin ld
/C/curveto ld
/f/fill ld
/LW/setlinewidth ld
/GC/setgray ld
/t/show ld
/N/newpath ld
/CT/concat ld
/cp/closepath ld
/S/stroke ld
/L/lineto ld
/CC/setcmykcolor ld
/A/ashow ld
/GS/gsave ld
/RC/setrgbcolor ld
/RM/rmoveto ld
/ML/setmiterlimit ld
/re {4 2 roll M
1 index 0 rlineto
0 exch rlineto
neg 0 rlineto
cp } bd
/_ctm matrix def
/_tm matrix def
/BT { _ctm currentmatrix pop matrix _tm copy pop 0 0 moveto } bd
/ET { _ctm setmatrix } bd
/iTm { _ctm setmatrix _tm concat } bd
/Tm { _tm astore pop iTm 0 0 moveto } bd
/ux 0.0 def
/uy 0.0 def
/F {
  /Tp exch def
  /Tf exch def
  Tf findfont Tp scalefont setfont
  /cf Tf def  /cs Tp def
} bd
/ULS {currentpoint /uy exch def /ux exch def} bd
/ULE {
  /Tcx currentpoint pop def
  gsave
  newpath
  cf findfont cs scalefont dup
  /FontMatrix get 0 get /Ts exch def /FontInfo get dup
  /UnderlinePosition get Ts mul /To exch def
  /UnderlineThickness get Ts mul /Tt exch def
  ux uy To add moveto  Tcx uy To add lineto
  Tt setlinewidth stroke
  grestore
} bd
/OLE {
  /Tcx currentpoint pop def
  gsave
  newpath
  cf findfont cs scalefont dup
  /FontMatrix get 0 get /Ts exch def /FontInfo get dup
  /UnderlinePosition get Ts mul /To exch def
  /UnderlineThickness get Ts mul /Tt exch def
  ux uy To add cs add moveto Tcx uy To add cs add lineto
  Tt setlinewidth stroke
  grestore
} bd
/SOE {
  /Tcx currentpoint pop def
  gsave
  newpath
  cf findfont cs scalefont dup
  /FontMatrix get 0 get /Ts exch def /FontInfo get dup
  /UnderlinePosition get Ts mul /To exch def
  /UnderlineThickness get Ts mul /Tt exch def
  ux uy To add cs 10 mul 26 idiv add moveto Tcx uy To add cs 10 mul 26 idiv add lineto
  Tt setlinewidth stroke
  grestore
} bd
/QT {
/Y22 exch store
/X22 exch store
/Y21 exch store
/X21 exch store
currentpoint
/Y21 load 2 mul add 3 div exch
/X21 load 2 mul add 3 div exch
/X21 load 2 mul /X22 load add 3 div
/Y21 load 2 mul /Y22 load add 3 div
/X22 load /Y22 load curveto
} bd
/SSPD {
dup length /d exch dict def
{
/v exch def
/k exch def
currentpagedevice k known {
/cpdv currentpagedevice k get def
v cpdv ne {
/upd false def
/nullv v type /nulltype eq def
/nullcpdv cpdv type /nulltype eq def
nullv nullcpdv or
{
/upd true def
} {
/sametype v type cpdv type eq def
sametype {
v type /arraytype eq {
/vlen v length def
/cpdvlen cpdv length def
vlen cpdvlen eq {
0 1 vlen 1 sub {
/i exch def
/obj v i get def
/cpdobj cpdv i get def
obj cpdobj ne {
/upd true def
exit
} if
} for
} {
/upd true def
} ifelse
} {
v type /dicttype eq {
v {
/dv exch def
/dk exch def
/cpddv cpdv dk get def
dv cpddv ne {
/upd true def
exit
} if
} forall
} {
/upd true def
} ifelse
} ifelse
} if
} ifelse
upd true eq {
d k v put
} if
} if
} if
} forall
d length 0 gt {
d setpagedevice
} if
} bd
/RE { % /NewFontName [NewEncodingArray] /FontName RE -
  findfont dup length dict begin
  {
    1 index /FID ne
    {def} {pop pop} ifelse
  } forall
  /Encoding exch def
  /FontName 1 index def
  currentdict definefont pop
  end
} bind def
%%EndResource
%%BeginResource: procset (Apache XML Graphics EPS ProcSet) 1.0 0
%%Version: 1.0 0
%%Copyright: (Copyright 2002-2003 The Apache Software Foundation. License terms: http://www.apache.org/licenses/LICENSE-2.0)
/BeginEPSF { %def
/b4_Inc_state save def         % Save state for cleanup
/dict_count countdictstack def % Count objects on dict stack
/op_count count 1 sub def      % Count objects on operand stack
userdict begin                 % Push userdict on dict stack
/showpage { } def              % Redefine showpage, { } = null proc
0 setgray 0 setlinecap         % Prepare graphics state
1 setlinewidth 0 setlinejoin
10 setmiterlimit [ ] 0 setdash newpath
/languagelevel where           % If level not equal to 1 then
{pop languagelevel             % set strokeadjust and
1 ne                           % overprint to their defaults.
{false setstrokeadjust false setoverprint
} if
} if
} bd
/EndEPSF { %def
count op_count sub {pop} repeat            % Clean up stacks
countdictstack dict_count sub {end} repeat
b4_Inc_state restore
} bd
%%EndResource
%FOPBeginFontDict
%%IncludeResource: font Courier-Bold
%%IncludeResource: font Helvetica
%%IncludeResource: font Courier-BoldOblique
%%IncludeResource: font Courier-Oblique
%%IncludeResource: font Times-Roman
%%IncludeResource: font Helvetica-BoldOblique
%%IncludeResource: font Helvetica-Bold
%%IncludeResource: font Helvetica-Oblique
%%IncludeResource: font Times-BoldItalic
%%IncludeResource: font Courier
%%IncludeResource: font Times-Italic
%%IncludeResource: font Times-Bold
%%IncludeResource: font Symbol
%%IncludeResource: font ZapfDingbats
%FOPEndFontDict
%%BeginResource: encoding WinAnsiEncoding
/WinAnsiEncoding [
/.notdef /.notdef /.notdef /.notdef /.notdef
/.notdef /.notdef /.notdef /.notdef /.notdef
/.notdef /.notdef /.notdef /.notdef /.notdef
/.notdef /.notdef /.notdef /.notdef /.notdef
/.notdef /.notdef /.notdef /.notdef /.notdef
/.notdef /.notdef /.notdef /.notdef /.notdef
/.notdef /.notdef /space /exclam /quotedbl
/numbersign /dollar /percent /ampersand /quotesingle
/parenleft /parenright /asterisk /plus /comma
/hyphen /period /slash /zero /one
/two /three /four /five /six
/seven /eight /nine /colon /semicolon
/less /equal /greater /question /at
/A /B /C /D /E
/F /G /H /I /J
/K /L /M /N /O
/P /Q /R /S /T
/U /V /W /X /Y
/Z /bracketleft /backslash /bracketright /asciicircum
/underscore /quoteleft /a /b /c
/d /e /f /g /h
/i /j /k /l /m
/n /o /p /q /r
/s /t /u /v /w
/x /y /z /braceleft /bar
/braceright /asciitilde /bullet /Euro /bullet
/quotesinglbase /florin /quotedblbase /ellipsis /dagger
/daggerdbl /circumflex /perthousand /Scaron /guilsinglleft
/OE /bullet /Zcaron /bullet /bullet
/quoteleft /quoteright /quotedblleft /quotedblright /bullet
/endash /emdash /asciitilde /trademark /scaron
/guilsinglright /oe /bullet /zcaron /Ydieresis
/space /exclamdown /cent /sterling /currency
/yen /brokenbar /section /dieresis /copyright
/ordfeminine /guillemotleft /logicalnot /sfthyphen /registered
/macron /degree /plusminus /twosuperior /threesuperior
/acute /mu /paragraph /middot /cedilla
/onesuperior /ordmasculine /guillemotright /onequarter /onehalf
/threequarters /questiondown /Agrave /Aacute /Acircumflex
/Atilde /Adieresis /Aring /AE /Ccedilla
/Egrave /Eacute /Ecircumflex /Edieresis /Igrave
/Iacute /Icircumflex /Idieresis /Eth /Ntilde
/Ograve /Oacute /Ocircumflex /Otilde /Odieresis
/multiply /Oslash /Ugrave /Uacute /Ucircumflex
/Udieresis /Yacute /Thorn /germandbls /agrave
/aacute /acircumflex /atilde /adieresis /aring
/ae /ccedilla /egrave /eacute /ecircumflex
/edieresis /igrave /iacute /icircumflex /idieresis
/eth /ntilde /ograve /oacute /ocircumflex
/otilde /odieresis /divide /oslash /ugrave
/uacute /ucircumflex /udieresis /yacute /thorn
/ydieresis
] def
%%EndResource
%FOPBeginFontReencode
/Courier-Bold findfont
dup length dict begin
  {1 index /FID ne {def} {pop pop} ifelse} forall
  /Encoding WinAnsiEncoding def
  currentdict
end
/Courier-Bold exch definefont pop
/Helvetica findfont
dup length dict begin
  {1 index /FID ne {def} {pop pop} ifelse} forall
  /Encoding WinAnsiEncoding def
  currentdict
end
/Helvetica exch definefont pop
/Courier-BoldOblique findfont
dup length dict begin
  {1 index /FID ne {def} {pop pop} ifelse} forall
  /Encoding WinAnsiEncoding def
  currentdict
end
/Courier-BoldOblique exch definefont pop
/Courier-Oblique findfont
dup length dict begin
  {1 index /FID ne {def} {pop pop} ifelse} forall
  /Encoding WinAnsiEncoding def
  currentdict
end
/Courier-Oblique exch definefont pop
/Times-Roman findfont
dup length dict begin
  {1 index /FID ne {def} {pop pop} ifelse} forall
  /Encoding WinAnsiEncoding def
  currentdict
end
/Times-Roman exch definefont pop
/Helvetica-BoldOblique findfont
dup length dict begin
  {1 index /FID ne {def} {pop pop} ifelse} forall
  /Encoding WinAnsiEncoding def
  currentdict
end
/Helvetica-BoldOblique exch definefont pop
/Helvetica-Bold findfont
dup length dict begin
  {1 index /FID ne {def} {pop pop} ifelse} forall
  /Encoding WinAnsiEncoding def
  currentdict
end
/Helvetica-Bold exch definefont pop
/Helvetica-Oblique findfont
dup length dict begin
  {1 index /FID ne {def} {pop pop} ifelse} forall
  /Encoding WinAnsiEncoding def
  currentdict
end
/Helvetica-Oblique exch definefont pop
/Times-BoldItalic findfont
dup length dict begin
  {1 index /FID ne {def} {pop pop} ifelse} forall
  /Encoding WinAnsiEncoding def
  currentdict
end
/Times-BoldItalic exch definefont pop
/Courier findfont
dup length dict begin
  {1 index /FID ne {def} {pop pop} ifelse} forall
  /Encoding WinAnsiEncoding def
  currentdict
end
/Courier exch definefont pop
/Times-Italic findfont
dup length dict begin
  {1 index /FID ne {def} {pop pop} ifelse} forall
  /Encoding WinAnsiEncoding def
  currentdict
end
/Times-Italic exch definefont pop
/Times-Bold findfont
dup length dict begin
  {1 index /FID ne {def} {pop pop} ifelse} forall
  /Encoding WinAnsiEncoding def
  currentdict
end
/Times-Bold exch definefont pop
%FOPEndFontReencode
%%EndProlog
%%Page: 1 1
%%PageBoundingBox: 0 0 750 375
%%BeginPageSetup
[1 0 0 -1 0 375] CT
%%EndPageSetup
GS
[0.75 0 0 0.75 0 0] CT
1 GC
N
0 0 1000 500 re
f
GR
GS
[0.75 0 0 0.75 0 0] CT
1 GC
N
0 0 1000 500 re
f
GR
GS
[0.75 0 0 0.75 0 0] CT
1 GC
N
130 431 M
905 431 L
905 37 L
130 37 L
cp
f
GR
GS
[0.75 0 0 0.75 0 0] CT
0.149 GC
2 setlinecap
1 LJ
0.667 LW
N
130 431 M
905 431 L
S
GR
GS
[0.75 0 0 0.75 0 0] CT
0.149 GC
2 setlinecap
1 LJ
0.667 LW
N
130 37 M
905 37 L
S
GR
GS
[0.75 0 0 0.75 0 0] CT
0.149 GC
2 setlinecap
1 LJ
0.667 LW
N
206.802 431 M
206.802 423.25 L
S
GR
GS
[0.75 0 0 0.75 0 0] CT
0.149 GC
2 setlinecap
1 LJ
0.667 LW
N
306.544 431 M
306.544 423.25 L
S
GR
GS
[0.75 0 0 0.75 0 0] CT
0.149 GC
2 setlinecap
1 LJ
0.667 LW
N
406.287 431 M
406.287 423.25 L
S
GR
GS
[0.75 0 0 0.75 0 0] CT
0.149 GC
2 setlinecap
1 LJ
0.667 LW
N
506.03 431 M
506.03 423.25 L
S
GR
GS
[0.75 0 0 0.75 0 0] CT
0.149 GC
2 setlinecap
1 LJ
0.667 LW
N
605.772 431 M
605.772 423.25 L
S
GR
GS
[0.75 0 0 0.75 0 0] CT
0.149 GC
2 setlinecap
1 LJ
0.667 LW
N
705.515 431 M
705.515 423.25 L
S
GR
GS
[0.75 0 0 0.75 0 0] CT
0.149 GC
2 setlinecap
1 LJ
0.667 LW
N
805.257 431 M
805.257 423.25 L
S
GR
GS
[0.75 0 0 0.75 0 0] CT
0.149 GC
2 setlinecap
1 LJ
0.667 LW
N
905 431 M
905 423.25 L
S
GR
GS
[0.75 0 0 0.75 0 0] CT
0.149 GC
2 setlinecap
1 LJ
0.667 LW
N
206.802 37 M
206.802 44.75 L
S
GR
GS
[0.75 0 0 0.75 0 0] CT
0.149 GC
2 setlinecap
1 LJ
0.667 LW
N
306.544 37 M
306.544 44.75 L
S
GR
GS
[0.75 0 0 0.75 0 0] CT
0.149 GC
2 setlinecap
1 LJ
0.667 LW
N
406.287 37 M
406.287 44.75 L
S
GR
GS
[0.75 0 0 0.75 0 0] CT
0.149 GC
2 setlinecap
1 LJ
0.667 LW
N
506.03 37 M
506.03 44.75 L
S
GR
GS
[0.75 0 0 0.75 0 0] CT
0.149 GC
2 setlinecap
1 LJ
0.667 LW
N
605.772 37 M
605.772 44.75 L
S
GR
GS
[0.75 0 0 0.75 0 0] CT
0.149 GC
2 setlinecap
1 LJ
0.667 LW
N
705.515 37 M
705.515 44.75 L
S
GR
GS
[0.75 0 0 0.75 0 0] CT
0.149 GC
2 setlinecap
1 LJ
0.667 LW
N
805.257 37 M
805.257 44.75 L
S
GR
GS
[0.75 0 0 0.75 0 0] CT
0.149 GC
2 setlinecap
1 LJ
0.667 LW
N
905 37 M
905 44.75 L
S
GR
GS
[0.75 0 0 0.75 155.10135 328.44997] CT
0.149 GC
/Helvetica 21.333 F
GS
[1 0 0 1 0 0] CT
-6 23 moveto 
1 -1 scale
(1) t 
GR
GR
GS
[0.75 0 0 0.75 229.9083 328.44997] CT
0.149 GC
/Helvetica 21.333 F
GS
[1 0 0 1 0 0] CT
-6 23 moveto 
1 -1 scale
(2) t 
GR
GR
GS
[0.75 0 0 0.75 304.71524 328.44997] CT
0.149 GC
/Helvetica 21.333 F
GS
[1 0 0 1 0 0] CT
-6 23 moveto 
1 -1 scale
(3) t 
GR
GR
GS
[0.75 0 0 0.75 379.5222 328.44997] CT
0.149 GC
/Helvetica 21.333 F
GS
[1 0 0 1 0 0] CT
-6 23 moveto 
1 -1 scale
(4) t 
GR
GR
GS
[0.75 0 0 0.75 454.32916 328.44997] CT
0.149 GC
/Helvetica 21.333 F
GS
[1 0 0 1 0 0] CT
-6 23 moveto 
1 -1 scale
(5) t 
GR
GR
GS
[0.75 0 0 0.75 529.13608 328.44997] CT
0.149 GC
/Helvetica 21.333 F
GS
[1 0 0 1 0 0] CT
-6 23 moveto 
1 -1 scale
(6) t 
GR
GR
GS
[0.75 0 0 0.75 603.94304 328.44997] CT
0.149 GC
/Helvetica 21.333 F
GS
[1 0 0 1 0 0] CT
-6 23 moveto 
1 -1 scale
(7) t 
GR
GR
GS
[0.75 0 0 0.75 678.75 328.44997] CT
0.149 GC
/Helvetica 21.333 F
GS
[1 0 0 1 0 0] CT
-6 23 moveto 
1 -1 scale
(8) t 
GR
GR
GS
[0.75 0 0 0.75 388.12527 351.19997] CT
0.149 GC
/Helvetica 23.467 F
GS
[1 0 0 1 0 0] CT
-54 25 moveto 
1 -1 scale
(Radius [m]) t 
GR
GR
GS
[0.75 0 0 0.75 0 0] CT
0.149 GC
2 setlinecap
1 LJ
0.667 LW
N
130 431 M
130 37 L
S
GR
GS
[0.75 0 0 0.75 0 0] CT
0.149 GC
2 setlinecap
1 LJ
0.667 LW
N
905 431 M
905 37 L
S
GR
GS
[0.75 0 0 0.75 0 0] CT
0.149 GC
2 setlinecap
1 LJ
0.667 LW
N
130 431 M
137.75 431 L
S
GR
GS
[0.75 0 0 0.75 0 0] CT
0.149 GC
2 setlinecap
1 LJ
0.667 LW
N
130 341.455 M
137.75 341.455 L
S
GR
GS
[0.75 0 0 0.75 0 0] CT
0.149 GC
2 setlinecap
1 LJ
0.667 LW
N
130 251.909 M
137.75 251.909 L
S
GR
GS
[0.75 0 0 0.75 0 0] CT
0.149 GC
2 setlinecap
1 LJ
0.667 LW
N
130 162.364 M
137.75 162.364 L
S
GR
GS
[0.75 0 0 0.75 0 0] CT
0.149 GC
2 setlinecap
1 LJ
0.667 LW
N
130 72.818 M
137.75 72.818 L
S
GR
GS
[0.75 0 0 0.75 0 0] CT
0.149 GC
2 setlinecap
1 LJ
0.667 LW
N
905 431 M
897.25 431 L
S
GR
GS
[0.75 0 0 0.75 0 0] CT
0.149 GC
2 setlinecap
1 LJ
0.667 LW
N
905 341.455 M
897.25 341.455 L
S
GR
GS
[0.75 0 0 0.75 0 0] CT
0.149 GC
2 setlinecap
1 LJ
0.667 LW
N
905 251.909 M
897.25 251.909 L
S
GR
GS
[0.75 0 0 0.75 0 0] CT
0.149 GC
2 setlinecap
1 LJ
0.667 LW
N
905 162.364 M
897.25 162.364 L
S
GR
GS
[0.75 0 0 0.75 0 0] CT
0.149 GC
2 setlinecap
1 LJ
0.667 LW
N
905 72.818 M
897.25 72.818 L
S
GR
GS
[0.75 0 0 0.75 92.3 323.24998] CT
0.149 GC
/Helvetica 21.333 F
GS
[1 0 0 1 0 0] CT
-30 8.5 moveto 
1 -1 scale
(0.1) t 
GR
GR
GS
[0.75 0 0 0.75 92.3 256.09094] CT
0.149 GC
/Helvetica 21.333 F
GS
[1 0 0 1 0 0] CT
-53 8.5 moveto 
1 -1 scale
(0.105) t 
GR
GR
GS
[0.75 0 0 0.75 92.3 188.93183] CT
0.149 GC
/Helvetica 21.333 F
GS
[1 0 0 1 0 0] CT
-41 8.5 moveto 
1 -1 scale
(0.11) t 
GR
GR
GS
[0.75 0 0 0.75 92.3 121.7727] CT
0.149 GC
/Helvetica 21.333 F
GS
[1 0 0 1 0 0] CT
-53 8.5 moveto 
1 -1 scale
(0.115) t 
GR
GR
GS
[0.75 0 0 0.75 92.3 54.61367] CT
0.149 GC
/Helvetica 21.333 F
GS
[1 0 0 1 0 0] CT
-41 8.5 moveto 
1 -1 scale
(0.12) t 
GR
GR
GS
[0 -0.75 0.75 0 49.55 175.49989] CT
0.149 GC
/Helvetica 23.467 F
GS
[1 0 0 1 0 0] CT
-54.5 -7 moveto 
1 -1 scale
(Porosity [-]) t 
GR
GR
GS
[0.75 0 0 0.75 0 0] CT
1 0 0 RC
1 LJ
2.667 LW
N
129.908 209.866 M
139.835 286.617 L
150.806 300.944 L
162.875 324.853 L
176.151 342.547 L
190.754 363.895 L
206.818 365.56 L
224.488 359.238 L
243.925 353.973 L
265.306 336.906 L
288.824 319.785 L
314.695 300.514 L
343.153 274.17 L
374.456 224.168 L
408.89 137.47 L
446.768 120.653 L
488.432 108.135 L
534.264 88.811 L
584.679 76.758 L
640.135 73.087 L
701.136 72.854 L
768.238 72.818 L
842.05 72.818 L
905.092 72.818 L
S
GR
GS
[0.75 0 0 0.75 0 0] CT
0 1 0 RC
1 LJ
2.667 LW
N
129.908 398.295 M
139.835 367.656 L
150.806 373.763 L
162.875 365.489 L
176.151 343.084 L
190.754 289.482 L
206.818 246.501 L
224.488 201.638 L
243.925 162.704 L
265.306 135.715 L
288.824 119.239 L
314.695 105.771 L
343.153 94.166 L
374.456 89.51 L
408.89 87.88 L
446.768 81.701 L
488.432 77.063 L
534.264 74.036 L
584.679 72.944 L
640.135 72.836 L
701.136 72.818 L
768.238 72.818 L
842.05 72.818 L
905.092 72.818 L
S
GR
GS
[0.75 0 0 0.75 0 0] CT
0 0 1 RC
1 LJ
2.667 LW
N
129.908 405.578 M
139.835 241.773 L
150.806 241.235 L
162.875 154.609 L
176.151 139.189 L
190.754 127.584 L
206.818 116.731 L
224.488 106.183 L
243.925 99.718 L
265.306 96.369 L
288.824 91.963 L
314.695 85.408 L
343.153 81.647 L
374.456 78.746 L
408.89 76.866 L
446.768 75.54 L
488.432 74.34 L
534.264 72.836 L
584.679 72.818 L
640.135 72.818 L
701.136 72.818 L
768.238 72.818 L
842.05 72.818 L
905.092 72.818 L
S
GR
GS
[0.75 0 0 0.75 0 0] CT
1 0 0 RC
[8 8] 0 setdash
2 LJ
2.667 LW
N
129.908 145.589 M
130.858 139.941 L
132.105 141.07 L
133.663 147.839 L
135.611 159.785 L
138.046 175.992 L
141.09 187.651 L
144.895 212.043 L
149.651 233.964 L
155.596 269.693 L
163.028 292.151 L
172.317 325.354 L
183.929 355.71 L
198.443 416.655 L
216.586 389.863 L
239.265 340.47 L
267.614 307.785 L
303.049 168.9 L
347.344 102.01 L
369.243 72.818 L
S
GR
GS
[0.75 0 0 0.75 0 0] CT
0 1 0 RC
[8 8] 0 setdash
2 LJ
2.667 LW
N
129.908 389.313 M
130.858 385.815 L
132.105 382.037 L
133.663 384.633 L
135.611 385.654 L
138.046 382.914 L
141.09 397.689 L
144.895 374.945 L
149.651 351.752 L
155.596 360.581 L
163.028 349.997 L
172.317 333.557 L
183.929 308.735 L
198.443 281.602 L
216.586 230.758 L
239.265 148.018 L
267.614 93.02 L
303.049 73.857 L
347.344 73.015 L
369.243 72.818 L
S
GR
GS
[0.75 0 0 0.75 0 0] CT
0 0 1 RC
[8 8] 0 setdash
2 LJ
2.667 LW
N
129.908 350.382 M
130.858 344.786 L
132.105 317.6 L
133.663 294.586 L
135.611 274.349 L
138.046 249.438 L
141.09 226.801 L
144.895 206.402 L
149.651 197.806 L
155.596 201.334 L
163.028 181.759 L
172.317 168.811 L
183.929 153.14 L
198.443 128.247 L
216.586 108.439 L
239.265 98.983 L
267.614 82.991 L
303.049 74.824 L
347.344 73.123 L
369.243 72.818 L
S
GR
GS
[0.75 0 0 0.75 0 0] CT
[2 2] 0 setdash
2 LJ
2.667 LW
N
129.908 232.147 M
130.858 262.243 L
133.351 292.437 L
139.585 277.698 L
155.17 214.927 L
194.132 146.353 L
291.537 90.441 L
535.049 72.818 L
905.092 72.818 L
S
GR
GS
[0.75 0 0 0.75 98.14334 196.68203] CT
10.0 ML
2.667 LW
N
6.167 -0.5 M
6.167 -4.182 3.182 -7.167 -0.5 -7.167 C
-4.182 -7.167 -7.167 -4.182 -7.167 -0.5 C
-7.167 3.182 -4.182 6.167 -0.5 6.167 C
3.182 6.167 6.167 3.182 6.167 -0.5 C
S
GR
GS
[0.75 0 0 0.75 100.01351 219.32806] CT
10.0 ML
2.667 LW
N
6.167 -0.5 M
6.167 -4.182 3.182 -7.167 -0.5 -7.167 C
-4.182 -7.167 -7.167 -4.182 -7.167 -0.5 C
-7.167 3.182 -4.182 6.167 -0.5 6.167 C
3.182 6.167 6.167 3.182 6.167 -0.5 C
S
GR
GS
[0.75 0 0 0.75 104.68895 208.27359] CT
10.0 ML
2.667 LW
N
6.167 -0.5 M
6.167 -4.182 3.182 -7.167 -0.5 -7.167 C
-4.182 -7.167 -7.167 -4.182 -7.167 -0.5 C
-7.167 3.182 -4.182 6.167 -0.5 6.167 C
3.182 6.167 6.167 3.182 6.167 -0.5 C
S
GR
GS
[0.75 0 0 0.75 116.37753 161.19508] CT
10.0 ML
2.667 LW
N
6.167 -0.5 M
6.167 -4.182 3.182 -7.167 -0.5 -7.167 C
-4.182 -7.167 -7.167 -4.182 -7.167 -0.5 C
-7.167 3.182 -4.182 6.167 -0.5 6.167 C
3.182 6.167 6.167 3.182 6.167 -0.5 C
S
GR
GS
[0.75 0 0 0.75 145.599 109.76471] CT
10.0 ML
2.667 LW
N
6.167 -0.5 M
6.167 -4.182 3.182 -7.167 -0.5 -7.167 C
-4.182 -7.167 -7.167 -4.182 -7.167 -0.5 C
-7.167 3.182 -4.182 6.167 -0.5 6.167 C
3.182 6.167 6.167 3.182 6.167 -0.5 C
S
GR
GS
[0.75 0 0 0.75 218.65285 67.83056] CT
10.0 ML
2.667 LW
N
6.167 -0.5 M
6.167 -4.182 3.182 -7.167 -0.5 -7.167 C
-4.182 -7.167 -7.167 -4.182 -7.167 -0.5 C
-7.167 3.182 -4.182 6.167 -0.5 6.167 C
3.182 6.167 6.167 3.182 6.167 -0.5 C
S
GR
GS
[0.75 0 0 0.75 401.28653 54.61367] CT
10.0 ML
2.667 LW
N
6.167 -0.5 M
6.167 -4.182 3.182 -7.167 -0.5 -7.167 C
-4.182 -7.167 -7.167 -4.182 -7.167 -0.5 C
-7.167 3.182 -4.182 6.167 -0.5 6.167 C
3.182 6.167 6.167 3.182 6.167 -0.5 C
S
GR
GS
[0.75 0 0 0.75 0 0] CT
[2 2] 0 setdash
2 LJ
2.667 LW
N
129.908 82.038 M
130.858 84.853 L
133.351 88.525 L
139.585 89.778 L
155.17 91.569 L
194.132 87.521 L
291.537 78.46 L
535.049 72.818 L
905.092 72.818 L
S
GR
GS
[0.75 0 0 0.75 98.14334 63.63982] CT
10.0 ML
2.667 LW
N
0 -7 M
0 7 L
-7 0 M
7 0 L
S
GR
GS
[0.75 0 0 0.75 100.01351 66.39338] CT
10.0 ML
2.667 LW
N
0 -7 M
0 7 L
-7 0 M
7 0 L
S
GR
GS
[0.75 0 0 0.75 104.68895 67.33359] CT
10.0 ML
2.667 LW
N
0 -7 M
0 7 L
-7 0 M
7 0 L
S
GR
GS
[0.75 0 0 0.75 116.37753 68.67679] CT
10.0 ML
2.667 LW
N
0 -7 M
0 7 L
-7 0 M
7 0 L
S
GR
GS
[0.75 0 0 0.75 145.599 65.64112] CT
10.0 ML
2.667 LW
N
0 -7 M
0 7 L
-7 0 M
7 0 L
S
GR
GS
[0.75 0 0 0.75 218.65285 58.84464] CT
10.0 ML
2.667 LW
N
0 -7 M
0 7 L
-7 0 M
7 0 L
S
GR
GS
[0.75 0 0 0.75 401.28653 54.61367] CT
10.0 ML
2.667 LW
N
0 -7 M
0 7 L
-7 0 M
7 0 L
S
GR
GS
[0.75 0 0 0.75 0 0] CT
1 GC
N
381 419 M
381 179 L
893 179 L
893 419 L
cp
f
GR
GS
[0.75 0 0 0.75 313.5 146.65084] CT
/Helvetica 21.333 F
GS
[1 0 0 1 0 0] CT
0 8.5 moveto 
1 -1 scale
(2014: 8mx8m, simple inj.) t 
GR
GR
GS
[0.75 0 0 0.75 0 0] CT
1 0 0 RC
1 LJ
2.667 LW
N
385 195.534 M
415 195.534 L
S
GR
GS
[0.75 0 0 0.75 313.5 168.82202] CT
/Helvetica 21.333 F
GS
[1 0 0 1 0 0] CT
0 8.5 moveto 
1 -1 scale
(2014: 8mx8m, ideal inj.) t 
GR
GR
GS
[0.75 0 0 0.75 0 0] CT
0 1 0 RC
1 LJ
2.667 LW
N
385 225.096 M
415 225.096 L
S
GR
GS
[0.75 0 0 0.75 313.5 190.99322] CT
/Helvetica 21.333 F
GS
[1 0 0 1 0 0] CT
0 8.5 moveto 
1 -1 scale
(2014: 8mx8m, real inj.) t 
GR
GR
GS
[0.75 0 0 0.75 0 0] CT
0 0 1 RC
1 LJ
2.667 LW
N
385 254.658 M
415 254.658 L
S
GR
GS
[0.75 0 0 0.75 313.5 213.16441] CT
/Helvetica 21.333 F
GS
[1 0 0 1 0 0] CT
0 8.5 moveto 
1 -1 scale
(2014: 2.4mx2.4m, simple inj.) t 
GR
GR
GS
[0.75 0 0 0.75 0 0] CT
1 0 0 RC
[8 8] 0 setdash
2 LJ
2.667 LW
N
385 284.219 M
415 284.219 L
S
GR
GS
[0.75 0 0 0.75 313.5 235.33559] CT
/Helvetica 21.333 F
GS
[1 0 0 1 0 0] CT
0 8.5 moveto 
1 -1 scale
(2014: 2.4mx2.4m, ideal inj.) t 
GR
GR
GS
[0.75 0 0 0.75 0 0] CT
0 1 0 RC
[8 8] 0 setdash
2 LJ
2.667 LW
N
385 313.781 M
415 313.781 L
S
GR
GS
[0.75 0 0 0.75 313.5 257.50678] CT
/Helvetica 21.333 F
GS
[1 0 0 1 0 0] CT
0 8.5 moveto 
1 -1 scale
(2014: 2.4mx2.4m, real inj.) t 
GR
GR
GS
[0.75 0 0 0.75 0 0] CT
0 0 1 RC
[8 8] 0 setdash
2 LJ
2.667 LW
N
385 343.342 M
415 343.342 L
S
GR
GS
[0.75 0 0 0.75 313.5 279.67797] CT
/Helvetica 21.333 F
GS
[1 0 0 1 0 0] CT
0 8.5 moveto 
1 -1 scale
(2018: 8mx50m, real inj. with 2014 parameters) t 
GR
GR
GS
[0.75 0 0 0.75 0 0] CT
[2 2] 0 setdash
2 LJ
2.667 LW
N
385 372.904 M
415 372.904 L
S
GR
GS
[0.75 0 0 0.75 300 279.67797] CT
10.0 ML
2.667 LW
N
6.167 -0.5 M
6.167 -4.182 3.182 -7.167 -0.5 -7.167 C
-4.182 -7.167 -7.167 -4.182 -7.167 -0.5 C
-7.167 3.182 -4.182 6.167 -0.5 6.167 C
3.182 6.167 6.167 3.182 6.167 -0.5 C
S
GR
GS
[0.75 0 0 0.75 313.5 301.84916] CT
/Helvetica 21.333 F
GS
[1 0 0 1 0 0] CT
0 8.5 moveto 
1 -1 scale
(2018: 8mx50m, real inj., Hommel 2015 parameters) t 
GR
GR
GS
[0.75 0 0 0.75 0 0] CT
[2 2] 0 setdash
2 LJ
2.667 LW
N
385 402.466 M
415 402.466 L
S
GR
GS
[0.75 0 0 0.75 300 301.84916] CT
10.0 ML
2.667 LW
N
0 -7 M
0 7 L
-7 0 M
7 0 L
S
GR
GS
[0.75 0 0 0.75 0 0] CT
0.149 GC
10.0 ML
0.667 LW
N
381 419 M
381 179 L
893 179 L
893 419 L
cp
S
GR
%%Trailer
%%Pages: 1
%%EOF
