%!PS-Adobe-3.0 EPSF-3.0
%%Creator: (MATLAB, The Mathworks, Inc. Version 9.1.0.441655 \(R2016b\). Operating System: Linux)
%%Title: /temp/hommel/results/Gorgas_promo_RainerSpecialIssue/FieldPressure/Pressures2018.eps
%%CreationDate: 2018-02-12T12:16:16
%%Pages: (atend)
%%BoundingBox: 0 0 900 516
%%LanguageLevel: 3
%%EndComments
%%BeginProlog
%%BeginResource: procset (Apache XML Graphics Std ProcSet) 1.2 0
%%Version: 1.2 0
%%Copyright: (Copyright 2001-2003,2010 The Apache Software Foundation. License terms: http://www.apache.org/licenses/LICENSE-2.0)
/bd{bind def}bind def
/ld{load def}bd
/GR/grestore ld
/M/moveto ld
/LJ/setlinejoin ld
/C/curveto ld
/f/fill ld
/LW/setlinewidth ld
/GC/setgray ld
/t/show ld
/N/newpath ld
/CT/concat ld
/cp/closepath ld
/S/stroke ld
/L/lineto ld
/CC/setcmykcolor ld
/A/ashow ld
/GS/gsave ld
/RC/setrgbcolor ld
/RM/rmoveto ld
/ML/setmiterlimit ld
/re {4 2 roll M
1 index 0 rlineto
0 exch rlineto
neg 0 rlineto
cp } bd
/_ctm matrix def
/_tm matrix def
/BT { _ctm currentmatrix pop matrix _tm copy pop 0 0 moveto } bd
/ET { _ctm setmatrix } bd
/iTm { _ctm setmatrix _tm concat } bd
/Tm { _tm astore pop iTm 0 0 moveto } bd
/ux 0.0 def
/uy 0.0 def
/F {
  /Tp exch def
  /Tf exch def
  Tf findfont Tp scalefont setfont
  /cf Tf def  /cs Tp def
} bd
/ULS {currentpoint /uy exch def /ux exch def} bd
/ULE {
  /Tcx currentpoint pop def
  gsave
  newpath
  cf findfont cs scalefont dup
  /FontMatrix get 0 get /Ts exch def /FontInfo get dup
  /UnderlinePosition get Ts mul /To exch def
  /UnderlineThickness get Ts mul /Tt exch def
  ux uy To add moveto  Tcx uy To add lineto
  Tt setlinewidth stroke
  grestore
} bd
/OLE {
  /Tcx currentpoint pop def
  gsave
  newpath
  cf findfont cs scalefont dup
  /FontMatrix get 0 get /Ts exch def /FontInfo get dup
  /UnderlinePosition get Ts mul /To exch def
  /UnderlineThickness get Ts mul /Tt exch def
  ux uy To add cs add moveto Tcx uy To add cs add lineto
  Tt setlinewidth stroke
  grestore
} bd
/SOE {
  /Tcx currentpoint pop def
  gsave
  newpath
  cf findfont cs scalefont dup
  /FontMatrix get 0 get /Ts exch def /FontInfo get dup
  /UnderlinePosition get Ts mul /To exch def
  /UnderlineThickness get Ts mul /Tt exch def
  ux uy To add cs 10 mul 26 idiv add moveto Tcx uy To add cs 10 mul 26 idiv add lineto
  Tt setlinewidth stroke
  grestore
} bd
/QT {
/Y22 exch store
/X22 exch store
/Y21 exch store
/X21 exch store
currentpoint
/Y21 load 2 mul add 3 div exch
/X21 load 2 mul add 3 div exch
/X21 load 2 mul /X22 load add 3 div
/Y21 load 2 mul /Y22 load add 3 div
/X22 load /Y22 load curveto
} bd
/SSPD {
dup length /d exch dict def
{
/v exch def
/k exch def
currentpagedevice k known {
/cpdv currentpagedevice k get def
v cpdv ne {
/upd false def
/nullv v type /nulltype eq def
/nullcpdv cpdv type /nulltype eq def
nullv nullcpdv or
{
/upd true def
} {
/sametype v type cpdv type eq def
sametype {
v type /arraytype eq {
/vlen v length def
/cpdvlen cpdv length def
vlen cpdvlen eq {
0 1 vlen 1 sub {
/i exch def
/obj v i get def
/cpdobj cpdv i get def
obj cpdobj ne {
/upd true def
exit
} if
} for
} {
/upd true def
} ifelse
} {
v type /dicttype eq {
v {
/dv exch def
/dk exch def
/cpddv cpdv dk get def
dv cpddv ne {
/upd true def
exit
} if
} forall
} {
/upd true def
} ifelse
} ifelse
} if
} ifelse
upd true eq {
d k v put
} if
} if
} if
} forall
d length 0 gt {
d setpagedevice
} if
} bd
/RE { % /NewFontName [NewEncodingArray] /FontName RE -
  findfont dup length dict begin
  {
    1 index /FID ne
    {def} {pop pop} ifelse
  } forall
  /Encoding exch def
  /FontName 1 index def
  currentdict definefont pop
  end
} bind def
%%EndResource
%%BeginResource: procset (Apache XML Graphics EPS ProcSet) 1.0 0
%%Version: 1.0 0
%%Copyright: (Copyright 2002-2003 The Apache Software Foundation. License terms: http://www.apache.org/licenses/LICENSE-2.0)
/BeginEPSF { %def
/b4_Inc_state save def         % Save state for cleanup
/dict_count countdictstack def % Count objects on dict stack
/op_count count 1 sub def      % Count objects on operand stack
userdict begin                 % Push userdict on dict stack
/showpage { } def              % Redefine showpage, { } = null proc
0 setgray 0 setlinecap         % Prepare graphics state
1 setlinewidth 0 setlinejoin
10 setmiterlimit [ ] 0 setdash newpath
/languagelevel where           % If level not equal to 1 then
{pop languagelevel             % set strokeadjust and
1 ne                           % overprint to their defaults.
{false setstrokeadjust false setoverprint
} if
} if
} bd
/EndEPSF { %def
count op_count sub {pop} repeat            % Clean up stacks
countdictstack dict_count sub {end} repeat
b4_Inc_state restore
} bd
%%EndResource
%FOPBeginFontDict
%%IncludeResource: font Courier-Bold
%%IncludeResource: font Helvetica
%%IncludeResource: font Courier-BoldOblique
%%IncludeResource: font Courier-Oblique
%%IncludeResource: font Times-Roman
%%IncludeResource: font Helvetica-BoldOblique
%%IncludeResource: font Helvetica-Bold
%%IncludeResource: font Helvetica-Oblique
%%IncludeResource: font Times-BoldItalic
%%IncludeResource: font Courier
%%IncludeResource: font Times-Italic
%%IncludeResource: font Times-Bold
%%IncludeResource: font Symbol
%%IncludeResource: font ZapfDingbats
%FOPEndFontDict
%%BeginResource: encoding WinAnsiEncoding
/WinAnsiEncoding [
/.notdef /.notdef /.notdef /.notdef /.notdef
/.notdef /.notdef /.notdef /.notdef /.notdef
/.notdef /.notdef /.notdef /.notdef /.notdef
/.notdef /.notdef /.notdef /.notdef /.notdef
/.notdef /.notdef /.notdef /.notdef /.notdef
/.notdef /.notdef /.notdef /.notdef /.notdef
/.notdef /.notdef /space /exclam /quotedbl
/numbersign /dollar /percent /ampersand /quotesingle
/parenleft /parenright /asterisk /plus /comma
/hyphen /period /slash /zero /one
/two /three /four /five /six
/seven /eight /nine /colon /semicolon
/less /equal /greater /question /at
/A /B /C /D /E
/F /G /H /I /J
/K /L /M /N /O
/P /Q /R /S /T
/U /V /W /X /Y
/Z /bracketleft /backslash /bracketright /asciicircum
/underscore /quoteleft /a /b /c
/d /e /f /g /h
/i /j /k /l /m
/n /o /p /q /r
/s /t /u /v /w
/x /y /z /braceleft /bar
/braceright /asciitilde /bullet /Euro /bullet
/quotesinglbase /florin /quotedblbase /ellipsis /dagger
/daggerdbl /circumflex /perthousand /Scaron /guilsinglleft
/OE /bullet /Zcaron /bullet /bullet
/quoteleft /quoteright /quotedblleft /quotedblright /bullet
/endash /emdash /asciitilde /trademark /scaron
/guilsinglright /oe /bullet /zcaron /Ydieresis
/space /exclamdown /cent /sterling /currency
/yen /brokenbar /section /dieresis /copyright
/ordfeminine /guillemotleft /logicalnot /sfthyphen /registered
/macron /degree /plusminus /twosuperior /threesuperior
/acute /mu /paragraph /middot /cedilla
/onesuperior /ordmasculine /guillemotright /onequarter /onehalf
/threequarters /questiondown /Agrave /Aacute /Acircumflex
/Atilde /Adieresis /Aring /AE /Ccedilla
/Egrave /Eacute /Ecircumflex /Edieresis /Igrave
/Iacute /Icircumflex /Idieresis /Eth /Ntilde
/Ograve /Oacute /Ocircumflex /Otilde /Odieresis
/multiply /Oslash /Ugrave /Uacute /Ucircumflex
/Udieresis /Yacute /Thorn /germandbls /agrave
/aacute /acircumflex /atilde /adieresis /aring
/ae /ccedilla /egrave /eacute /ecircumflex
/edieresis /igrave /iacute /icircumflex /idieresis
/eth /ntilde /ograve /oacute /ocircumflex
/otilde /odieresis /divide /oslash /ugrave
/uacute /ucircumflex /udieresis /yacute /thorn
/ydieresis
] def
%%EndResource
%FOPBeginFontReencode
/Courier-Bold findfont
dup length dict begin
  {1 index /FID ne {def} {pop pop} ifelse} forall
  /Encoding WinAnsiEncoding def
  currentdict
end
/Courier-Bold exch definefont pop
/Helvetica findfont
dup length dict begin
  {1 index /FID ne {def} {pop pop} ifelse} forall
  /Encoding WinAnsiEncoding def
  currentdict
end
/Helvetica exch definefont pop
/Courier-BoldOblique findfont
dup length dict begin
  {1 index /FID ne {def} {pop pop} ifelse} forall
  /Encoding WinAnsiEncoding def
  currentdict
end
/Courier-BoldOblique exch definefont pop
/Courier-Oblique findfont
dup length dict begin
  {1 index /FID ne {def} {pop pop} ifelse} forall
  /Encoding WinAnsiEncoding def
  currentdict
end
/Courier-Oblique exch definefont pop
/Times-Roman findfont
dup length dict begin
  {1 index /FID ne {def} {pop pop} ifelse} forall
  /Encoding WinAnsiEncoding def
  currentdict
end
/Times-Roman exch definefont pop
/Helvetica-BoldOblique findfont
dup length dict begin
  {1 index /FID ne {def} {pop pop} ifelse} forall
  /Encoding WinAnsiEncoding def
  currentdict
end
/Helvetica-BoldOblique exch definefont pop
/Helvetica-Bold findfont
dup length dict begin
  {1 index /FID ne {def} {pop pop} ifelse} forall
  /Encoding WinAnsiEncoding def
  currentdict
end
/Helvetica-Bold exch definefont pop
/Helvetica-Oblique findfont
dup length dict begin
  {1 index /FID ne {def} {pop pop} ifelse} forall
  /Encoding WinAnsiEncoding def
  currentdict
end
/Helvetica-Oblique exch definefont pop
/Times-BoldItalic findfont
dup length dict begin
  {1 index /FID ne {def} {pop pop} ifelse} forall
  /Encoding WinAnsiEncoding def
  currentdict
end
/Times-BoldItalic exch definefont pop
/Courier findfont
dup length dict begin
  {1 index /FID ne {def} {pop pop} ifelse} forall
  /Encoding WinAnsiEncoding def
  currentdict
end
/Courier exch definefont pop
/Times-Italic findfont
dup length dict begin
  {1 index /FID ne {def} {pop pop} ifelse} forall
  /Encoding WinAnsiEncoding def
  currentdict
end
/Times-Italic exch definefont pop
/Times-Bold findfont
dup length dict begin
  {1 index /FID ne {def} {pop pop} ifelse} forall
  /Encoding WinAnsiEncoding def
  currentdict
end
/Times-Bold exch definefont pop
%FOPEndFontReencode
%%EndProlog
%%Page: 1 1
%%PageBoundingBox: 0 0 900 516
%%BeginPageSetup
[1 0 0 -1 0 516] CT
%%EndPageSetup
GS
[0.75 0 0 0.75 0 0] CT
1 GC
N
0 0 1200 688 re
f
GR
GS
[0.75 0 0 0.75 0 0] CT
1 GC
N
0 0 1200 688 re
f
GR
GS
[0.75 0 0 0.75 0 0] CT
1 GC
N
156 605 M
1086 605 L
1086 52 L
156 52 L
cp
f
GR
GS
[0.75 0 0 0.75 0 0] CT
0.149 GC
2 setlinecap
1 LJ
0.667 LW
N
156 605 M
1086 605 L
S
GR
GS
[0.75 0 0 0.75 0 0] CT
0.149 GC
2 setlinecap
1 LJ
0.667 LW
N
156 52 M
1086 52 L
S
GR
GS
[0.75 0 0 0.75 0 0] CT
0.149 GC
2 setlinecap
1 LJ
0.667 LW
N
156 605 M
156 595.7 L
S
GR
GS
[0.75 0 0 0.75 0 0] CT
0.149 GC
2 setlinecap
1 LJ
0.667 LW
N
280 605 M
280 595.7 L
S
GR
GS
[0.75 0 0 0.75 0 0] CT
0.149 GC
2 setlinecap
1 LJ
0.667 LW
N
404 605 M
404 595.7 L
S
GR
GS
[0.75 0 0 0.75 0 0] CT
0.149 GC
2 setlinecap
1 LJ
0.667 LW
N
528 605 M
528 595.7 L
S
GR
GS
[0.75 0 0 0.75 0 0] CT
0.149 GC
2 setlinecap
1 LJ
0.667 LW
N
652 605 M
652 595.7 L
S
GR
GS
[0.75 0 0 0.75 0 0] CT
0.149 GC
2 setlinecap
1 LJ
0.667 LW
N
776 605 M
776 595.7 L
S
GR
GS
[0.75 0 0 0.75 0 0] CT
0.149 GC
2 setlinecap
1 LJ
0.667 LW
N
900 605 M
900 595.7 L
S
GR
GS
[0.75 0 0 0.75 0 0] CT
0.149 GC
2 setlinecap
1 LJ
0.667 LW
N
1024 605 M
1024 595.7 L
S
GR
GS
[0.75 0 0 0.75 0 0] CT
0.149 GC
2 setlinecap
1 LJ
0.667 LW
N
156 52 M
156 61.3 L
S
GR
GS
[0.75 0 0 0.75 0 0] CT
0.149 GC
2 setlinecap
1 LJ
0.667 LW
N
280 52 M
280 61.3 L
S
GR
GS
[0.75 0 0 0.75 0 0] CT
0.149 GC
2 setlinecap
1 LJ
0.667 LW
N
404 52 M
404 61.3 L
S
GR
GS
[0.75 0 0 0.75 0 0] CT
0.149 GC
2 setlinecap
1 LJ
0.667 LW
N
528 52 M
528 61.3 L
S
GR
GS
[0.75 0 0 0.75 0 0] CT
0.149 GC
2 setlinecap
1 LJ
0.667 LW
N
652 52 M
652 61.3 L
S
GR
GS
[0.75 0 0 0.75 0 0] CT
0.149 GC
2 setlinecap
1 LJ
0.667 LW
N
776 52 M
776 61.3 L
S
GR
GS
[0.75 0 0 0.75 0 0] CT
0.149 GC
2 setlinecap
1 LJ
0.667 LW
N
900 52 M
900 61.3 L
S
GR
GS
[0.75 0 0 0.75 0 0] CT
0.149 GC
2 setlinecap
1 LJ
0.667 LW
N
1024 52 M
1024 61.3 L
S
GR
GS
[0.75 0 0 0.75 117 459.75] CT
0.149 GC
/Helvetica 26.667 F
GS
[1 0 0 1 0 0] CT
-8 29 moveto 
1 -1 scale
(0) t 
GR
GR
GS
[0.75 0 0 0.75 210 459.75] CT
0.149 GC
/Helvetica 26.667 F
GS
[1 0 0 1 0 0] CT
-15.5 29 moveto 
1 -1 scale
(10) t 
GR
GR
GS
[0.75 0 0 0.75 303 459.75] CT
0.149 GC
/Helvetica 26.667 F
GS
[1 0 0 1 0 0] CT
-15.5 29 moveto 
1 -1 scale
(20) t 
GR
GR
GS
[0.75 0 0 0.75 396 459.75] CT
0.149 GC
/Helvetica 26.667 F
GS
[1 0 0 1 0 0] CT
-15.5 29 moveto 
1 -1 scale
(30) t 
GR
GR
GS
[0.75 0 0 0.75 489 459.75] CT
0.149 GC
/Helvetica 26.667 F
GS
[1 0 0 1 0 0] CT
-15.5 29 moveto 
1 -1 scale
(40) t 
GR
GR
GS
[0.75 0 0 0.75 582 459.75] CT
0.149 GC
/Helvetica 26.667 F
GS
[1 0 0 1 0 0] CT
-15.5 29 moveto 
1 -1 scale
(50) t 
GR
GR
GS
[0.75 0 0 0.75 675 459.75] CT
0.149 GC
/Helvetica 26.667 F
GS
[1 0 0 1 0 0] CT
-15.5 29 moveto 
1 -1 scale
(60) t 
GR
GR
GS
[0.75 0 0 0.75 768 459.75] CT
0.149 GC
/Helvetica 26.667 F
GS
[1 0 0 1 0 0] CT
-15.5 29 moveto 
1 -1 scale
(70) t 
GR
GR
GS
[0.75 0 0 0.75 465.75032 488.49998] CT
0.149 GC
/Helvetica 26.667 F
GS
[1 0 0 1 0 0] CT
-48.5 29 moveto 
1 -1 scale
(Time [h]) t 
GR
GR
GS
[0.75 0 0 0.75 0 0] CT
0.149 GC
2 setlinecap
1 LJ
0.667 LW
N
156 605 M
156 52 L
S
GR
GS
[0.75 0 0 0.75 0 0] CT
0.149 GC
2 setlinecap
1 LJ
0.667 LW
N
1086 605 M
1086 52 L
S
GR
GS
[0.75 0 0 0.75 0 0] CT
0.149 GC
2 setlinecap
1 LJ
0.667 LW
N
156 605 M
165.3 605 L
S
GR
GS
[0.75 0 0 0.75 0 0] CT
0.149 GC
2 setlinecap
1 LJ
0.667 LW
N
156 526 M
165.3 526 L
S
GR
GS
[0.75 0 0 0.75 0 0] CT
0.149 GC
2 setlinecap
1 LJ
0.667 LW
N
156 447 M
165.3 447 L
S
GR
GS
[0.75 0 0 0.75 0 0] CT
0.149 GC
2 setlinecap
1 LJ
0.667 LW
N
156 368 M
165.3 368 L
S
GR
GS
[0.75 0 0 0.75 0 0] CT
0.149 GC
2 setlinecap
1 LJ
0.667 LW
N
156 289 M
165.3 289 L
S
GR
GS
[0.75 0 0 0.75 0 0] CT
0.149 GC
2 setlinecap
1 LJ
0.667 LW
N
156 210 M
165.3 210 L
S
GR
GS
[0.75 0 0 0.75 0 0] CT
0.149 GC
2 setlinecap
1 LJ
0.667 LW
N
156 131 M
165.3 131 L
S
GR
GS
[0.75 0 0 0.75 0 0] CT
0.149 GC
2 setlinecap
1 LJ
0.667 LW
N
156 52 M
165.3 52 L
S
GR
GS
[0.75 0 0 0.75 0 0] CT
0.149 GC
2 setlinecap
1 LJ
0.667 LW
N
1086 605 M
1076.7 605 L
S
GR
GS
[0.75 0 0 0.75 0 0] CT
0.149 GC
2 setlinecap
1 LJ
0.667 LW
N
1086 526 M
1076.7 526 L
S
GR
GS
[0.75 0 0 0.75 0 0] CT
0.149 GC
2 setlinecap
1 LJ
0.667 LW
N
1086 447 M
1076.7 447 L
S
GR
GS
[0.75 0 0 0.75 0 0] CT
0.149 GC
2 setlinecap
1 LJ
0.667 LW
N
1086 368 M
1076.7 368 L
S
GR
GS
[0.75 0 0 0.75 0 0] CT
0.149 GC
2 setlinecap
1 LJ
0.667 LW
N
1086 289 M
1076.7 289 L
S
GR
GS
[0.75 0 0 0.75 0 0] CT
0.149 GC
2 setlinecap
1 LJ
0.667 LW
N
1086 210 M
1076.7 210 L
S
GR
GS
[0.75 0 0 0.75 0 0] CT
0.149 GC
2 setlinecap
1 LJ
0.667 LW
N
1086 131 M
1076.7 131 L
S
GR
GS
[0.75 0 0 0.75 0 0] CT
0.149 GC
2 setlinecap
1 LJ
0.667 LW
N
1086 52 M
1076.7 52 L
S
GR
GS
[0.75 0 0 0.75 111 453.75] CT
0.149 GC
/Helvetica 26.667 F
GS
[1 0 0 1 0 0] CT
-16 10.5 moveto 
1 -1 scale
(3) t 
GR
GR
GS
[0.75 0 0 0.75 111 394.5] CT
0.149 GC
/Helvetica 26.667 F
GS
[1 0 0 1 0 0] CT
-38 10.5 moveto 
1 -1 scale
(3.5) t 
GR
GR
GS
[0.75 0 0 0.75 111 335.25] CT
0.149 GC
/Helvetica 26.667 F
GS
[1 0 0 1 0 0] CT
-16 10.5 moveto 
1 -1 scale
(4) t 
GR
GR
GS
[0.75 0 0 0.75 111 276] CT
0.149 GC
/Helvetica 26.667 F
GS
[1 0 0 1 0 0] CT
-38 10.5 moveto 
1 -1 scale
(4.5) t 
GR
GR
GS
[0.75 0 0 0.75 111 216.75] CT
0.149 GC
/Helvetica 26.667 F
GS
[1 0 0 1 0 0] CT
-16 10.5 moveto 
1 -1 scale
(5) t 
GR
GR
GS
[0.75 0 0 0.75 111 157.5] CT
0.149 GC
/Helvetica 26.667 F
GS
[1 0 0 1 0 0] CT
-38 10.5 moveto 
1 -1 scale
(5.5) t 
GR
GR
GS
[0.75 0 0 0.75 111 98.25] CT
0.149 GC
/Helvetica 26.667 F
GS
[1 0 0 1 0 0] CT
-16 10.5 moveto 
1 -1 scale
(6) t 
GR
GR
GS
[0.75 0 0 0.75 111 39] CT
0.149 GC
/Helvetica 26.667 F
GS
[1 0 0 1 0 0] CT
-38 10.5 moveto 
1 -1 scale
(6.5) t 
GR
GR
GS
[0 -0.75 0.75 0 79.5 246.37482] CT
0.149 GC
/Helvetica 26.667 F
GS
[1 0 0 1 0 0] CT
-134.5 -8 moveto 
1 -1 scale
(Injection Pressure [Pa]) t 
GR
GR
GS
[0.75 0 0 0.75 117 33] CT
0.149 GC
N
3.969 -0.781 M
3.969 -0.984 4.094 -1.156 QT
9.719 -6.75 L
4.094 -12.359 L
3.969 -12.5 3.969 -12.719 QT
3.969 -12.922 4.125 -13.094 QT
4.281 -13.266 4.516 -13.266 QT
4.688 -13.266 4.922 -13.094 QT
10.5 -7.5 L
16.078 -13.094 L
16.297 -13.266 16.469 -13.266 QT
16.688 -13.266 16.844 -13.109 QT
17 -12.953 17 -12.719 QT
17 -12.5 16.875 -12.359 QT
11.266 -6.75 L
16.875 -1.156 L
17 -0.984 17 -0.781 QT
17 -0.547 16.844 -0.391 QT
16.688 -0.234 16.469 -0.234 QT
16.266 -0.234 16.078 -0.438 QT
10.5 -6 L
4.922 -0.438 L
4.719 -0.234 4.516 -0.234 QT
4.281 -0.234 4.125 -0.406 QT
3.969 -0.578 3.969 -0.781 QT
cp
f
GR
GS
[0.75 0 0 0.75 132.75 33] CT
0.149 GC
/Helvetica 26.667 F
GS
[1 0 0 1 0 0] CT
0 0 moveto 
1 -1 scale
(10) t 
GR
GR
GS
[0.75 0 0 0.75 156 23.25] CT
0.149 GC
/Helvetica 21.333 F
GS
[1 0 0 1 0 0] CT
0 0 moveto 
1 -1 scale
(6) t 
GR
GR
GS
[0.75 0 0 0.75 0 0] CT
0 0 1 RC
1 LJ
2.667 LW
N
156 551.28 M
156.034 551.28 L
156.086 551.28 L
156.164 551.28 L
156.28 551.28 L
156.454 551.28 L
156.716 551.279 L
157.033 551.274 L
157.206 551.269 L
157.464 551.254 L
157.851 551.198 L
158.433 550.981 L
159.1 550.476 L
159.272 550.327 L
159.531 550.059 L
159.617 549.964 L
159.789 549.753 L
160.047 549.386 L
160.133 549.258 L
160.306 548.98 L
160.564 548.512 L
160.951 547.701 L
161.533 546.286 L
162.405 543.911 L
163.712 540.335 L
165.674 535.862 L
168.617 531.57 L
170.467 529.724 L
170.639 529.56 L
170.897 529.329 L
171.285 529.013 L
171.866 528.568 L
172.738 527.783 L
174.046 525.822 L
174.6 524.819 L
174.772 524.49 L
175.031 523.954 L
175.418 523.053 L
175.999 521.51 L
176.871 518.93 L
177.7 516.41 L
177.872 515.885 L
178.131 515.098 L
178.518 513.934 L
179.099 512.227 L
179.971 509.68 L
181.279 505.519 L
181.833 503.667 L
182.006 503.084 L
182.264 502.184 L
182.651 500.782 L
183.073 499.196 L
183.246 498.54 L
183.504 497.538 L
183.891 496.007 L
184.505 493.541 L
185.425 489.76 L
186.806 483.765 L
187.207 481.992 L
187.379 481.225 L
187.637 480.06 L
188.025 478.281 L
188.606 475.568 L
189.478 471.567 L
190.786 466.216 L
191.34 464.098 L
191.512 463.456 L
191.771 462.528 L
192.158 461.224 L
192.739 459.443 L
193.66 456.865 L
195.04 452.912 L
195.473 451.646 L
195.646 451.137 L
195.904 450.359 L
196.291 449.154 L
196.873 447.271 L
197.745 444.42 L
199.052 440.566 L
201.014 436.502 L
202.087 434.839 L
202.259 434.587 L
202.517 434.241 L
202.905 433.791 L
203.486 433.236 L
204.358 432.47 L
205.666 430.897 L
206.22 430.116 L
206.392 429.862 L
206.651 429.449 L
207.038 428.76 L
207.619 427.583 L
208.491 425.652 L
209.799 422.924 L
211.761 420.131 L
214.703 419.048 L
219.117 421.84 L
225.738 429.806 L
235.669 442.653 L
250.566 458.768 L
272.911 476.03 L
306.429 492.551 L
356.706 507.059 L
389.12 513.779 L
389.292 513.814 L
389.551 513.867 L
389.938 513.942 L
390.519 514.011 L
391.187 513.959 L
391.359 513.936 L
391.617 513.873 L
392.005 513.706 L
392.586 513.277 L
393.458 512.305 L
394.766 510.514 L
396.727 508.004 L
399.67 505.526 L
399.867 505.367 L
400.039 505.232 L
400.297 505.04 L
400.685 504.772 L
401.266 504.382 L
402.138 503.643 L
402.76 502.97 L
402.932 502.771 L
403.191 502.439 L
403.578 501.859 L
404.159 500.801 L
405.031 498.919 L
406.339 495.944 L
406.687 495.153 L
406.859 494.761 L
407.117 494.18 L
407.505 493.327 L
408.086 492.085 L
408.753 490.659 L
408.926 490.291 L
409.184 489.733 L
409.571 488.872 L
410.153 487.517 L
411.073 485.288 L
412.453 482.142 L
414.524 478.561 L
417.63 475.836 L
422.289 475.501 L
429.278 478.408 L
431.693 479.663 L
431.866 479.754 L
432.124 479.892 L
432.511 480.101 L
433.093 480.381 L
433.14 480.404 L
433.312 480.482 L
433.571 480.584 L
433.958 480.695 L
434.539 480.738 L
435.411 480.547 L
436.719 479.962 L
437.48 479.577 L
437.652 479.489 L
437.911 479.354 L
438.298 479.151 L
438.879 478.826 L
439.751 478.165 L
440.373 477.55 L
440.546 477.368 L
440.804 477.063 L
441.191 476.529 L
441.773 475.558 L
442.693 473.741 L
444.15 470.826 L
445.127 469.011 L
445.299 468.696 L
445.557 468.238 L
445.945 467.583 L
446.526 466.661 L
447.398 465.262 L
448.02 464.195 L
448.192 463.893 L
448.451 463.423 L
448.838 462.663 L
449.419 461.406 L
450.291 459.363 L
451.12 457.403 L
451.292 456.995 L
451.551 456.388 L
451.938 455.497 L
452.519 454.202 L
453.391 452.258 L
454.699 448.947 L
455.253 447.446 L
455.426 446.97 L
455.684 446.231 L
456.071 445.061 L
456.653 443.198 L
457.525 440.311 L
458.832 436.307 L
459.18 435.275 L
459.352 434.772 L
459.611 434.042 L
459.998 433.008 L
460.612 431.503 L
461.532 429.407 L
462.912 426.108 L
463.313 425.125 L
463.486 424.698 L
463.744 424.041 L
464.131 423.02 L
464.713 421.417 L
465.585 418.982 L
466.892 415.705 L
468.854 412.325 L
471.797 410.575 L
476.211 412.551 L
482.831 419.533 L
492.763 431.298 L
507.659 446.402 L
530.005 462.948 L
563.522 479.257 L
613.799 494.188 L
667.293 504.485 L
667.466 504.518 L
667.724 504.568 L
668.111 504.637 L
668.693 504.698 L
669.565 504.527 L
670.187 504.21 L
670.359 504.106 L
670.617 503.909 L
671.005 503.516 L
671.586 502.707 L
672.458 501.132 L
673.766 498.491 L
673.907 498.204 L
674.079 497.85 L
674.337 497.317 L
674.725 496.521 L
675.306 495.334 L
676.178 493.466 L
676.8 492.041 L
676.972 491.639 L
677.231 491.014 L
677.618 490.02 L
678.199 488.409 L
679.071 485.836 L
680.379 482.092 L
680.933 480.558 L
681.106 480.088 L
681.364 479.399 L
681.751 478.407 L
682.333 477.003 L
683.205 474.965 L
683.827 473.491 L
683.999 473.081 L
684.257 472.455 L
684.645 471.488 L
685.226 469.965 L
686.098 467.613 L
687.34 464.45 L
687.512 464.017 L
687.771 463.378 L
688.158 462.456 L
688.739 461.147 L
689.611 459.262 L
690.233 457.912 L
690.406 457.537 L
690.664 456.969 L
691.051 456.098 L
691.665 454.666 L
692.585 452.502 L
693.966 449.589 L
695.193 447.437 L
695.366 447.144 L
695.624 446.727 L
696.011 446.148 L
696.593 445.359 L
697.26 444.485 L
697.432 444.26 L
697.691 443.92 L
698.078 443.388 L
698.659 442.523 L
699.531 441.122 L
700.567 439.474 L
700.739 439.2 L
700.997 438.797 L
701.385 438.207 L
701.966 437.353 L
702.838 436.023 L
704.146 433.511 L
704.7 432.325 L
704.872 431.943 L
705.131 431.342 L
705.518 430.371 L
706.099 428.778 L
706.971 426.25 L
708.279 422.693 L
709.04 420.793 L
709.212 420.371 L
709.471 419.765 L
709.858 418.912 L
710.439 417.748 L
711.311 416.106 L
712.692 413.178 L
712.76 413.032 L
712.932 412.658 L
713.205 412.044 L
713.637 411.007 L
714.32 409.165 L
715.346 405.913 L
715.653 404.892 L
715.826 404.308 L
716.084 403.399 L
716.471 401.972 L
717.085 399.605 L
718.005 396.05 L
719.386 391.374 L
719.58 390.73 L
719.752 390.173 L
720.011 389.369 L
720.398 388.24 L
720.979 386.708 L
721.851 384.627 L
722.473 383.188 L
722.646 382.791 L
722.904 382.197 L
723.291 381.295 L
723.873 379.911 L
724.745 377.849 L
725.367 376.428 L
725.539 376.04 L
725.797 375.472 L
726.185 374.66 L
726.798 373.467 L
727.719 371.76 L
728.26 370.751 L
728.432 370.428 L
728.691 369.937 L
729.078 369.175 L
729.659 367.975 L
730.531 366.148 L
731.36 364.502 L
731.532 364.165 L
731.791 363.673 L
732.178 362.976 L
732.759 362.015 L
733.631 360.652 L
734.253 359.667 L
734.426 359.392 L
734.684 358.971 L
735.093 358.273 L
735.706 357.157 L
736.627 355.453 L
737.353 354.167 L
737.526 353.866 L
737.784 353.428 L
738.171 352.809 L
738.785 351.915 L
739.705 350.633 L
739.833 350.456 L
740.006 350.217 L
740.264 349.856 L
740.651 349.298 L
741.233 348.416 L
742.105 347.071 L
743.14 345.63 L
743.312 345.395 L
743.571 345.058 L
743.958 344.59 L
744.539 343.965 L
745.46 343.019 L
746.033 342.404 L
746.206 342.216 L
746.464 341.921 L
746.873 341.416 L
747.486 340.569 L
748.407 339.229 L
748.927 338.478 L
749.099 338.231 L
749.357 337.869 L
749.745 337.352 L
750.326 336.634 L
751.198 335.592 L
752.506 333.703 L
753.06 332.817 L
753.232 332.531 L
753.491 332.082 L
753.878 331.353 L
754.459 330.158 L
755.331 328.293 L
755.54 327.844 L
755.712 327.475 L
755.971 326.925 L
756.358 326.124 L
756.939 324.989 L
757.811 323.367 L
757.813 323.363 L
757.986 323.046 L
758.244 322.572 L
758.631 321.859 L
759.245 320.727 L
760.165 319.108 L
761.546 317.231 L
763.616 316.167 L
766.722 317.984 L
771.382 324.975 L
778.37 338.417 L
788.853 357.924 L
804.578 381.742 L
828.164 407.531 L
863.544 433.082 L
916.614 456.73 L
992.793 476.897 L
992.966 476.943 L
993.224 477.011 L
993.611 477.111 L
994.193 477.249 L
995.065 477.381 L
995.17 477.396 L
995.342 477.417 L
995.601 477.439 L
995.988 477.448 L
996.203 477.445 L
996.376 477.438 L
996.565 477.424 L
996.737 477.406 L
996.996 477.368 L
997.405 477.283 L
997.598 477.236 L
997.771 477.192 L
997.991 477.129 L
998.163 477.076 L
998.422 476.99 L
998.809 476.85 L
999.024 476.769 L
999.197 476.702 L
999.386 476.627 L
999.558 476.558 L
999.817 476.451 L
1000.204 476.288 L
1000.419 476.198 L
1000.592 476.124 L
1000.791 476.039 L
1000.964 475.965 L
1001.222 475.856 L
1001.609 475.692 L
1001.825 475.602 L
1001.997 475.53 L
1002.255 475.423 L
1002.643 475.265 L
1002.775 475.211 L
1002.948 475.141 L
1003.206 475.037 L
1003.593 474.881 L
1004.175 474.643 L
1005.047 474.287 L
1006.354 473.814 L
1008.316 473.351 L
1011.422 473.229 L
1016.081 473.898 L
1016.798 474.019 L
1016.97 474.049 L
1017.228 474.096 L
1017.418 474.132 L
1017.59 474.165 L
1017.848 474.216 L
1018.236 474.293 L
1018.451 474.336 L
1018.623 474.369 L
1018.882 474.418 L
1018.968 474.434 L
1019.14 474.465 L
1019.398 474.509 L
1019.786 474.566 L
1020.001 474.595 L
1020.173 474.618 L
1020.432 474.645 L
1020.518 474.655 L
1020.69 474.67 L
1020.948 474.689 L
1021.336 474.706 L
1021.551 474.712 L
1021.723 474.715 L
1021.982 474.713 L
1022.068 474.712 L
1022.24 474.709 L
1022.498 474.699 L
1022.886 474.673 L
1023.101 474.656 L
1023.273 474.64 L
1023.531 474.613 L
1023.721 474.59 L
1023.893 474.568 L
1024.152 474.531 L
1024.539 474.468 L
1025.12 474.357 L
1025.992 474.171 L
1027.3 473.918 L
1029.371 473.715 L
1032.477 473.884 L
1037.136 474.795 L
1037.154 474.799 L
1037.327 474.834 L
1037.585 474.888 L
1037.972 474.972 L
1038.25 475.032 L
1038.422 475.069 L
1038.68 475.125 L
1039.068 475.202 L
1039.283 475.242 L
1039.455 475.273 L
1039.572 475.293 L
1039.745 475.321 L
1040.003 475.356 L
1040.39 475.397 L
1040.606 475.416 L
1040.778 475.429 L
1040.895 475.436 L
1041.067 475.445 L
1041.326 475.452 L
1041.713 475.453 L
1041.928 475.449 L
1042.101 475.446 L
1042.176 475.444 L
1042.349 475.438 L
1042.607 475.425 L
1042.994 475.399 L
1043.21 475.384 L
1043.382 475.37 L
1043.478 475.362 L
1043.651 475.347 L
1043.923 475.322 L
1044.355 475.279 L
1044.512 475.263 L
1044.684 475.245 L
1044.708 475.242 L
1044.88 475.224 L
1045.139 475.196 L
1045.548 475.151 L
1045.741 475.13 L
1045.914 475.111 L
1046.157 475.084 L
1046.503 475.047 L
1046.775 475.021 L
1046.947 475.005 L
1047.205 474.984 L
1047.593 474.966 L
1047.808 474.96 L
1047.98 474.959 L
1048.097 474.96 L
1048.27 474.964 L
1048.528 474.98 L
1048.915 475.022 L
1049.131 475.051 L
1049.303 475.078 L
1049.441 475.102 L
1049.613 475.134 L
1049.871 475.189 L
1050.259 475.28 L
1050.872 475.438 L
1051.792 475.679 L
1053.25 476.059 L
1055.435 476.635 L
1058.896 477.6 L
1064.087 479.102 L
1068.867 480.475 L
1069.04 480.524 L
1069.298 480.599 L
1069.685 480.708 L
1070.267 480.861 L
1070.314 480.874 L
1070.486 480.917 L
1070.745 480.978 L
1071.132 481.055 L
1071.347 481.093 L
1071.52 481.121 L
1071.606 481.134 L
1071.778 481.156 L
1072.036 481.181 L
1072.424 481.201 L
1072.639 481.206 L
1072.811 481.207 L
1072.915 481.206 L
1073.087 481.201 L
1073.345 481.188 L
1073.733 481.156 L
1073.948 481.134 L
1074.12 481.114 L
1074.223 481.101 L
1074.396 481.079 L
1074.654 481.041 L
1075.042 480.979 L
1075.257 480.942 L
1075.429 480.912 L
1075.515 480.897 L
1075.687 480.866 L
1075.946 480.818 L
1076.333 480.742 L
1076.548 480.701 L
1076.721 480.667 L
1076.824 480.646 L
1076.996 480.612 L
1077.255 480.561 L
1077.642 480.483 L
1078.223 480.369 L
1079.095 480.209 L
1080.403 480.028 L
1082.365 479.934 L
1085.307 480.144 L
1086.93 480.439 L
S
GR
GS
[0.75 0 0 0.75 0 0] CT
1 0 0 RC
1 LJ
2.667 LW
N
156 551.28 M
156.034 513.461 L
157.033 495.846 L
158.768 490.798 L
159.1 490.159 L
159.617 540.948 L
160.133 492.492 L
161.071 542.898 L
170.467 532.851 L
170.501 495.371 L
170.673 486.22 L
170.846 483.236 L
171.018 481.215 L
171.19 479.678 L
171.362 478.419 L
171.522 477.4 L
171.694 476.407 L
171.867 475.486 L
172.027 474.674 L
172.199 473.838 L
172.371 473.031 L
172.543 472.251 L
172.716 471.494 L
172.876 470.81 L
173.048 470.093 L
173.22 469.394 L
173.392 468.713 L
173.565 468.05 L
173.737 467.403 L
173.909 466.771 L
174.081 466.155 L
174.253 465.554 L
174.426 464.967 L
174.598 464.394 L
174.6 464.388 L
177.7 512.888 L
177.701 484.93 L
177.73 473.578 L
177.843 466.103 L
178.168 460.341 L
180.02 447.85 L
181.833 439.084 L
182.733 489.131 L
183.073 489.339 L
183.136 448.282 L
183.255 443.426 L
183.398 440.699 L
183.541 438.751 L
183.68 437.243 L
183.815 435.971 L
183.988 434.543 L
184.131 433.449 L
184.303 432.198 L
184.475 430.99 L
184.647 429.81 L
184.82 428.65 L
184.992 427.505 L
185.164 426.373 L
185.336 425.255 L
185.496 424.232 L
185.651 423.242 L
185.824 422.163 L
185.996 421.099 L
186.168 420.05 L
186.34 419.017 L
186.513 418 L
186.685 417 L
186.857 416.016 L
187.029 415.049 L
187.201 414.099 L
187.207 414.071 L
191.34 448.496 L
191.392 408.183 L
191.564 400.446 L
191.736 397.034 L
191.908 394.462 L
192.081 392.317 L
192.253 390.415 L
192.425 388.654 L
192.597 386.978 L
192.769 385.357 L
192.942 383.777 L
193.114 382.228 L
193.286 380.705 L
193.458 379.207 L
193.631 377.733 L
193.803 376.283 L
193.975 374.857 L
194.147 373.454 L
194.319 372.075 L
194.492 370.72 L
194.664 369.389 L
194.836 368.082 L
195.008 366.799 L
195.181 365.541 L
195.353 364.307 L
195.473 363.457 L
196.411 409.467 L
202.087 382.811 L
202.088 354.208 L
202.097 347.882 L
202.113 343.58 L
202.132 340.71 L
202.176 337.324 L
202.316 332.814 L
202.607 327.718 L
202.918 324.056 L
203.132 321.985 L
203.423 319.462 L
203.661 317.534 L
203.957 315.271 L
204.436 311.829 L
204.876 308.879 L
205.262 306.429 L
205.843 302.975 L
206.22 300.871 L
206.665 349.778 L
218.784 410.069 L
232.561 429.042 L
246.339 432.745 L
260.117 433.466 L
273.895 433.606 L
286.639 433.632 L
300.417 433.638 L
314.195 433.638 L
327.973 433.638 L
341.75 433.638 L
355.528 433.638 L
369.306 433.638 L
383.084 433.638 L
389.12 433.638 L
389.123 404.084 L
389.15 395.139 L
389.206 389.889 L
389.33 385.916 L
389.502 383.097 L
389.673 381.408 L
389.845 380.286 L
390.018 379.533 L
390.19 379.034 L
390.362 378.715 L
390.534 378.528 L
390.706 378.475 L
390.879 378.519 L
391.051 378.64 L
391.187 378.78 L
391.589 429.605 L
395.177 448.683 L
399.867 459.574 L
399.873 425.369 L
400.002 411.551 L
400.174 408.128 L
400.346 406.243 L
400.518 404.987 L
400.69 404.086 L
400.863 403.395 L
401.035 402.831 L
401.207 402.349 L
401.378 401.928 L
401.55 401.541 L
401.722 401.183 L
401.894 400.847 L
402.067 400.534 L
402.239 400.238 L
402.411 399.956 L
402.583 399.688 L
402.756 399.433 L
402.76 399.426 L
406.687 457.899 L
406.689 427.81 L
406.742 415.183 L
406.914 408.806 L
407.086 406.213 L
407.258 404.464 L
407.43 403.156 L
407.603 402.105 L
407.775 401.205 L
407.947 400.399 L
408.119 399.656 L
408.292 398.956 L
408.464 398.287 L
408.636 397.645 L
408.753 397.22 L
409.63 448.444 L
414.584 435.997 L
419.531 424.455 L
427.213 415.811 L
431.088 413.635 L
431.693 413.384 L
431.721 371.724 L
431.844 363.816 L
432.713 355.08 L
433.14 353.465 L
435.467 411.319 L
437.48 413.455 L
437.562 368.517 L
437.706 363.997 L
437.855 361.758 L
438.027 360.058 L
438.198 358.874 L
438.37 357.974 L
438.542 357.256 L
438.714 356.654 L
438.887 356.13 L
439.059 355.663 L
439.231 355.236 L
439.403 354.844 L
439.576 354.479 L
439.748 354.137 L
439.92 353.815 L
440.092 353.513 L
440.264 353.226 L
440.373 353.053 L
440.812 404.661 L
445.127 410.104 L
445.28 361.571 L
445.452 358.192 L
445.624 356.12 L
445.797 354.617 L
445.969 353.436 L
446.132 352.492 L
446.3 351.635 L
446.473 350.831 L
446.645 350.081 L
446.817 349.37 L
446.989 348.686 L
447.161 348.03 L
447.334 347.395 L
447.506 346.779 L
447.678 346.181 L
447.827 345.68 L
447.999 345.111 L
448.02 345.047 L
451.12 397.807 L
451.143 357.936 L
451.24 350.325 L
451.398 346.606 L
451.57 344.186 L
451.743 342.415 L
451.915 341.001 L
452.087 339.795 L
452.259 338.714 L
452.431 337.71 L
452.604 336.758 L
452.776 335.843 L
452.948 334.958 L
453.12 334.097 L
453.293 333.257 L
453.453 332.494 L
453.625 331.689 L
453.797 330.906 L
453.969 330.136 L
454.142 329.386 L
454.302 328.702 L
454.474 327.983 L
454.646 327.278 L
454.818 326.589 L
454.99 325.915 L
455.163 325.255 L
455.253 324.915 L
456.672 376.933 L
459.18 371.721 L
459.185 339.988 L
459.198 335.044 L
459.227 330.783 L
459.283 327.349 L
459.428 323.617 L
459.666 320.13 L
459.978 317.015 L
460.784 311.143 L
462.131 302.974 L
463.313 296.781 L
463.758 343.872 L
473.755 391.422 L
486.42 412.009 L
500.198 416.729 L
513.976 417.647 L
524.674 417.811 L
538.452 417.862 L
552.229 417.873 L
566.007 417.874 L
579.785 417.876 L
593.563 417.876 L
607.341 417.876 L
621.118 417.876 L
634.896 417.876 L
648.674 417.876 L
662.452 417.876 L
667.293 417.876 L
667.301 382.099 L
667.329 375.318 L
667.404 369.909 L
667.562 366.03 L
667.734 363.691 L
667.901 362.237 L
668.073 361.26 L
668.245 360.606 L
668.418 360.174 L
668.59 359.905 L
668.762 359.761 L
668.934 359.716 L
669.107 359.751 L
669.279 359.853 L
669.451 360.02 L
669.623 360.245 L
669.795 360.515 L
669.968 360.82 L
670.14 361.156 L
670.187 361.253 L
672.714 429.682 L
673.907 434.131 L
674.006 385.975 L
674.179 382.138 L
674.351 380.409 L
674.523 379.362 L
674.695 378.682 L
674.867 378.212 L
675.04 377.866 L
675.212 377.594 L
675.384 377.367 L
675.556 377.17 L
675.729 376.993 L
675.901 376.831 L
676.073 376.682 L
676.245 376.541 L
676.417 376.409 L
676.59 376.283 L
676.762 376.163 L
676.8 376.137 L
678.754 435.956 L
680.933 436.316 L
680.994 394.118 L
681.166 388.545 L
681.338 386.182 L
681.511 384.547 L
681.683 383.289 L
681.855 382.245 L
682.027 381.327 L
682.199 380.483 L
682.372 379.686 L
682.544 378.922 L
682.716 378.182 L
682.888 377.461 L
683.061 376.755 L
683.233 376.064 L
683.405 375.388 L
683.577 374.725 L
683.749 374.075 L
683.827 373.787 L
685.526 423.212 L
687.34 419.884 L
687.448 379.333 L
687.62 375.563 L
687.792 373.37 L
687.964 371.709 L
688.137 370.341 L
688.309 369.142 L
688.481 368.045 L
688.653 367.012 L
688.825 366.023 L
688.998 365.065 L
689.17 364.133 L
689.342 363.221 L
689.514 362.33 L
689.687 361.456 L
689.859 360.6 L
690.031 359.761 L
690.203 358.939 L
690.233 358.796 L
691.951 401.193 L
693.667 396.127 L
695.193 391.485 L
695.282 340.648 L
695.454 335.269 L
695.626 332.387 L
695.798 330.249 L
695.97 328.52 L
696.143 327.034 L
696.315 325.7 L
696.487 324.463 L
696.659 323.297 L
696.832 322.182 L
697.004 321.108 L
697.176 320.07 L
697.26 319.576 L
698.144 375.777 L
700.567 371.219 L
700.577 330.172 L
700.659 319.538 L
700.831 314.627 L
701.004 311.895 L
701.176 309.87 L
701.348 308.237 L
701.52 306.835 L
701.693 305.577 L
701.865 304.413 L
702.037 303.314 L
702.209 302.263 L
702.381 301.25 L
702.554 300.271 L
702.726 299.32 L
702.898 298.397 L
703.07 297.497 L
703.242 296.622 L
703.415 295.768 L
703.587 294.937 L
703.759 294.125 L
703.931 293.333 L
704.104 292.56 L
704.276 291.806 L
704.448 291.069 L
704.62 290.349 L
704.7 290.022 L
706.473 347.245 L
709.04 341.586 L
709.042 303.288 L
709.074 291.751 L
709.107 288.127 L
709.179 284.74 L
709.262 282.54 L
709.483 278.8 L
710.027 273.392 L
711.453 264.12 L
712.76 257.272 L
712.781 259.036 L
712.809 259.035 L
712.836 258.961 L
712.902 258.681 L
713.046 258.016 L
713.218 257.212 L
713.391 256.388 L
713.542 255.65 L
713.709 254.829 L
713.878 254.003 L
714.05 253.156 L
714.222 252.306 L
714.394 251.459 L
714.566 250.614 L
714.739 249.774 L
714.911 248.939 L
715.083 248.111 L
715.255 247.291 L
715.428 246.479 L
715.6 245.676 L
715.653 245.428 L
716.954 303.907 L
719.58 296.21 L
719.666 242.62 L
719.838 237.034 L
720.011 234.044 L
720.183 231.786 L
720.355 229.922 L
720.527 228.285 L
720.699 226.784 L
720.872 225.369 L
721.044 224.012 L
721.216 222.697 L
721.388 221.415 L
721.561 220.162 L
721.733 218.935 L
721.905 217.732 L
722.077 216.553 L
722.249 215.396 L
722.422 214.262 L
722.473 213.926 L
724.69 269.076 L
725.367 266.727 L
725.522 209.05 L
725.694 205.085 L
725.866 202.428 L
726.038 200.341 L
726.211 198.577 L
726.383 197.008 L
726.555 195.562 L
726.727 194.196 L
726.899 192.889 L
727.072 191.626 L
727.244 190.401 L
727.416 189.208 L
727.588 188.045 L
727.761 186.91 L
727.933 185.801 L
728.105 184.717 L
728.26 183.762 L
728.432 238.624 L
731.36 238.56 L
731.513 179.787 L
731.685 175.884 L
731.857 173.302 L
732.03 171.297 L
732.202 169.621 L
732.374 168.144 L
732.546 166.792 L
732.718 165.522 L
732.891 164.313 L
733.063 163.15 L
733.235 162.024 L
733.407 160.931 L
733.58 159.868 L
733.752 158.831 L
733.924 157.822 L
734.096 156.836 L
734.253 155.957 L
735.929 217.194 L
737.353 213.873 L
737.385 161.613 L
737.557 152.344 L
737.729 149.089 L
737.902 146.798 L
738.074 144.995 L
738.246 143.477 L
738.418 142.134 L
738.591 140.901 L
738.763 139.744 L
738.935 138.643 L
739.107 137.585 L
739.279 136.563 L
739.452 135.572 L
739.624 134.609 L
739.796 133.673 L
739.833 133.474 L
741.217 197.05 L
743.14 193.47 L
743.192 137.608 L
743.364 130.154 L
743.536 127.133 L
743.708 124.985 L
743.881 123.296 L
744.053 121.875 L
744.225 120.62 L
744.397 119.472 L
744.569 118.398 L
744.742 117.378 L
744.914 116.4 L
745.086 115.458 L
745.258 114.547 L
745.431 113.663 L
745.603 112.806 L
745.775 111.972 L
745.947 111.161 L
746.033 110.763 L
747.246 176.773 L
748.927 175.18 L
748.961 120.338 L
749.133 111.089 L
749.306 108.055 L
749.478 105.962 L
749.65 104.344 L
749.822 103.002 L
749.994 101.828 L
750.167 100.761 L
750.339 99.764 L
750.511 98.819 L
750.683 97.913 L
750.856 97.041 L
751.028 96.196 L
751.2 95.377 L
751.372 94.58 L
751.544 93.805 L
751.717 93.051 L
751.889 92.316 L
752.061 91.599 L
752.233 90.9 L
752.406 90.218 L
752.578 89.552 L
752.75 88.902 L
752.922 88.266 L
753.06 87.769 L
753.491 153.339 L
755.54 155.664 L
755.569 97.379 L
755.596 93.357 L
755.63 90.884 L
755.704 88.159 L
755.921 84.123 L
756.661 77.774 L
757.813 71.89 L
758.667 146.444 L
770.329 284.225 L
783.074 328.198 L
796.851 338.117 L
810.629 340.042 L
824.407 340.416 L
838.185 340.489 L
851.963 340.503 L
865.74 340.506 L
879.518 340.506 L
893.296 340.507 L
907.074 340.507 L
920.851 340.508 L
934.629 340.508 L
948.407 340.508 L
962.185 340.508 L
975.962 340.508 L
989.74 340.508 L
992.793 340.508 L
992.805 325.572 L
992.822 324.221 L
992.92 322.099 L
993.082 321.008 L
993.24 320.443 L
993.385 320.205 L
993.557 320.14 L
993.73 320.256 L
993.89 320.494 L
994.062 320.868 L
994.234 321.344 L
994.406 321.927 L
994.579 322.594 L
994.751 323.323 L
994.923 324.103 L
995.095 324.928 L
995.17 325.297 L
995.687 349.029 L
996.203 352.947 L
996.29 334.423 L
996.411 334.089 L
996.508 334.236 L
996.565 334.381 L
997.109 358.333 L
997.598 361.752 L
997.65 343.362 L
997.822 342.459 L
997.991 342.73 L
998.912 369.085 L
999.024 369.743 L
999.146 350.147 L
999.318 349.938 L
999.386 350.009 L
999.878 373.487 L
1000.419 376.439 L
1000.488 356.973 L
1000.66 356.064 L
1000.791 356.057 L
1000.935 376.909 L
1001.825 382.007 L
1001.833 365.222 L
1001.987 361.379 L
1002.159 361.085 L
1002.331 361.119 L
1002.503 361.291 L
1002.676 361.537 L
1002.775 361.699 L
1003.095 384.624 L
1004.242 388.975 L
1005.848 392.555 L
1007.206 394.813 L
1008.503 396.551 L
1010.664 398.8 L
1016.798 402.496 L
1016.912 379.475 L
1017.085 378.272 L
1017.257 377.629 L
1017.418 377.193 L
1018.332 402.442 L
1018.451 402.564 L
1018.574 378.822 L
1018.747 377.748 L
1018.919 377.172 L
1018.968 377.048 L
1019.294 401.87 L
1020.001 403.044 L
1020.053 379.889 L
1020.225 377.924 L
1020.397 377.233 L
1020.518 376.901 L
1020.629 400.972 L
1021.536 403.561 L
1021.551 403.578 L
1021.693 378.284 L
1021.865 377.332 L
1022.038 376.783 L
1022.068 376.706 L
1022.437 403.057 L
1023.101 404.108 L
1023.135 380.142 L
1023.308 377.589 L
1023.48 376.838 L
1023.652 376.348 L
1023.721 376.193 L
1024.094 403.431 L
1025.11 404.744 L
1026.355 405.281 L
1027.313 405.531 L
1028.143 405.688 L
1029.65 405.896 L
1033.006 406.175 L
1037.154 406.372 L
1037.3 376.075 L
1037.535 374.87 L
1038.25 373.655 L
1039.283 405.504 L
1039.572 374.938 L
1040.606 405.943 L
1040.895 375.312 L
1041.34 405.569 L
1041.928 406.298 L
1042.176 375.831 L
1043.21 406.656 L
1043.425 376.285 L
1043.478 375.917 L
1044.512 406.925 L
1044.708 376.762 L
1045.607 407.119 L
1045.741 407.222 L
1045.896 437.862 L
1046.069 438.997 L
1046.241 439.69 L
1046.413 440.187 L
1046.585 440.566 L
1046.757 440.871 L
1046.775 440.899 L
1047.808 409.012 L
1048.097 377.736 L
1048.542 407.895 L
1049.131 408.293 L
1049.441 377.07 L
1052.297 409.14 L
1061.147 412.216 L
1068.867 413.25 L
1068.87 389.458 L
1068.891 385.747 L
1068.931 383.976 L
1069.056 381.71 L
1069.222 380.344 L
1069.394 379.197 L
1069.567 378.543 L
1069.739 378.06 L
1069.911 377.628 L
1070.083 377.233 L
1070.255 376.861 L
1070.314 376.74 L
1070.69 411.605 L
1071.347 412.886 L
1071.377 379.899 L
1071.514 377.361 L
1071.606 376.742 L
1071.751 411.927 L
1072.583 413.771 L
1072.639 413.834 L
1072.76 376.995 L
1072.915 375.808 L
1073.001 411.666 L
1073.68 414.344 L
1073.948 414.653 L
1074.051 376.072 L
1074.223 374.593 L
1074.742 414.733 L
1075.257 415.37 L
1075.278 377.085 L
1075.436 373.682 L
1075.515 373.093 L
1075.754 414.742 L
1076.347 415.787 L
1076.548 415.971 L
1076.613 373.303 L
1076.785 371.286 L
1076.824 371.012 L
S
GR
GS
[0.75 0 0 0.75 0 0] CT
0 1 0 RC
[2 2] 0 setdash
2 LJ
2.667 LW
N
156 551.28 M
156.034 513.461 L
157.033 495.846 L
158.768 490.799 L
159.1 490.159 L
159.617 540.993 L
160.133 492.505 L
161.033 542.832 L
170.467 532.845 L
170.501 495.365 L
170.673 486.214 L
170.846 483.229 L
171.018 481.209 L
171.19 479.671 L
171.362 478.413 L
171.534 477.321 L
171.707 476.334 L
171.879 475.417 L
172.051 474.548 L
172.223 473.716 L
172.396 472.914 L
172.568 472.137 L
172.74 471.384 L
172.912 470.651 L
173.084 469.937 L
173.257 469.243 L
173.429 468.566 L
173.601 467.906 L
173.773 467.262 L
173.946 466.635 L
174.118 466.022 L
174.29 465.424 L
174.462 464.841 L
174.6 464.384 L
175.059 512.05 L
177.7 512.884 L
177.997 463.243 L
178.517 457.104 L
181.288 441.628 L
181.833 439.212 L
183.073 489.447 L
183.159 447.065 L
183.318 442.198 L
183.49 439.504 L
183.662 437.526 L
183.835 435.91 L
184.007 434.496 L
184.179 433.193 L
184.351 431.954 L
184.524 430.753 L
184.696 429.577 L
184.868 428.42 L
185.04 427.277 L
185.212 426.147 L
185.385 425.031 L
185.557 423.928 L
185.729 422.839 L
185.901 421.765 L
186.074 420.706 L
186.246 419.663 L
186.418 418.635 L
186.59 417.624 L
186.762 416.63 L
186.935 415.652 L
187.107 414.692 L
187.207 414.143 L
188.942 459.157 L
191.34 448.54 L
191.478 403.009 L
191.65 398.631 L
191.822 395.722 L
191.994 393.394 L
192.167 391.387 L
192.339 389.563 L
192.511 387.848 L
192.683 386.202 L
192.856 384.602 L
193.028 383.037 L
193.2 381.501 L
193.372 379.99 L
193.544 378.504 L
193.717 377.041 L
193.889 375.602 L
194.061 374.186 L
194.233 372.795 L
194.406 371.427 L
194.578 370.083 L
194.75 368.764 L
194.922 367.469 L
195.094 366.198 L
195.267 364.951 L
195.439 363.728 L
195.473 363.486 L
202.087 382.824 L
202.804 325.537 L
203.261 320.943 L
203.514 318.786 L
203.714 317.182 L
204.198 313.555 L
204.941 308.506 L
205.51 304.975 L
206.164 301.233 L
206.22 300.926 L
214.467 394.687 L
228.244 425.971 L
242.022 432.148 L
255.8 433.35 L
269.348 433.582 L
283.126 433.628 L
296.904 433.638 L
310.682 433.64 L
324.459 433.64 L
338.237 433.64 L
351.096 433.64 L
364.874 433.64 L
378.652 433.64 L
389.12 433.64 L
389.121 410.675 L
389.13 400.544 L
389.135 398.665 L
389.145 396.282 L
389.156 394.511 L
389.196 390.903 L
389.248 388.616 L
389.325 386.608 L
389.389 385.421 L
389.523 383.583 L
389.683 382.093 L
389.842 381.095 L
390.014 380.365 L
390.186 379.892 L
390.359 379.605 L
390.531 379.457 L
390.703 379.422 L
390.864 379.468 L
391.024 379.581 L
391.187 379.75 L
399.867 459.188 L
399.982 413.147 L
400.154 409.315 L
400.326 407.341 L
400.498 406.046 L
400.658 405.184 L
400.83 404.476 L
401.003 403.908 L
401.175 403.428 L
401.347 403.006 L
401.519 402.625 L
401.692 402.274 L
401.864 401.949 L
402.025 401.663 L
402.197 401.373 L
402.369 401.099 L
402.541 400.838 L
402.702 400.607 L
402.76 400.525 L
406.687 457.664 L
406.859 411.243 L
407.031 408.148 L
407.203 406.21 L
407.376 404.803 L
407.519 403.869 L
407.691 402.919 L
407.852 402.139 L
408.024 401.377 L
408.196 400.667 L
408.357 400.037 L
408.529 399.391 L
408.701 398.768 L
408.753 398.591 L
412.987 440.899 L
424.756 418.132 L
431.693 413.634 L
431.823 367.881 L
432.088 362.233 L
432.606 358.143 L
433.14 356.026 L
433.599 405.597 L
437.48 413.438 L
437.555 371.277 L
437.68 366.881 L
437.853 364.193 L
438.025 362.5 L
438.197 361.314 L
438.369 360.425 L
438.542 359.717 L
438.714 359.124 L
438.886 358.61 L
439.058 358.15 L
439.215 357.768 L
439.387 357.38 L
439.56 357.021 L
439.732 356.685 L
439.904 356.369 L
440.076 356.073 L
440.249 355.792 L
440.373 355.599 L
440.833 404.49 L
445.127 409.99 L
445.213 366.893 L
445.385 361.924 L
445.546 359.657 L
445.718 357.961 L
445.89 356.676 L
446.062 355.631 L
446.235 354.729 L
446.407 353.916 L
446.579 353.164 L
446.751 352.453 L
446.924 351.774 L
447.096 351.121 L
447.268 350.49 L
447.44 349.879 L
447.612 349.285 L
447.785 348.708 L
447.957 348.147 L
448.02 347.945 L
451.12 397.698 L
451.292 351.736 L
451.452 348.713 L
451.609 346.717 L
451.782 345.07 L
451.954 343.735 L
452.126 342.582 L
452.298 341.539 L
452.471 340.566 L
452.643 339.637 L
452.786 338.892 L
452.944 338.088 L
453.1 337.317 L
453.273 336.485 L
453.445 335.672 L
453.617 334.877 L
453.789 334.099 L
453.961 333.338 L
454.11 332.697 L
454.245 332.118 L
454.386 331.529 L
454.558 330.823 L
454.722 330.167 L
454.89 329.505 L
455.062 328.843 L
455.234 328.193 L
455.253 328.123 L
459.18 371.803 L
459.217 336.004 L
459.315 329.521 L
459.567 324.614 L
459.961 320.412 L
460.319 317.618 L
460.918 313.576 L
461.393 310.611 L
461.803 308.167 L
462.229 305.739 L
462.535 304.063 L
463.196 300.642 L
463.313 300.064 L
469.285 373.8 L
477.166 400.458 L
490.943 414.485 L
504.032 417.162 L
517.408 417.732 L
530.497 417.846 L
543.988 417.87 L
557.766 417.875 L
571.543 417.877 L
584.345 417.877 L
598.123 417.877 L
607.466 417.877 L
620.268 417.877 L
634.046 417.877 L
647.823 417.877 L
661.601 417.877 L
667.293 417.877 L
667.299 386.819 L
667.326 379.336 L
667.378 374.835 L
667.49 371.271 L
667.611 369.172 L
667.749 367.542 L
667.905 366.273 L
668.078 365.333 L
668.25 364.712 L
668.398 364.357 L
668.571 364.102 L
668.743 363.976 L
668.915 363.952 L
669.087 364.012 L
669.26 364.142 L
669.432 364.33 L
669.604 364.568 L
669.776 364.849 L
669.948 365.165 L
670.121 365.513 L
670.187 365.653 L
673.907 433.805 L
674.079 388.23 L
674.251 385.745 L
674.423 384.391 L
674.596 383.553 L
674.768 383.003 L
674.94 382.62 L
675.112 382.335 L
675.284 382.108 L
675.457 381.919 L
675.629 381.756 L
675.801 381.609 L
675.973 381.475 L
676.146 381.352 L
676.318 381.237 L
676.49 381.129 L
676.662 381.027 L
676.8 380.95 L
677.259 430.158 L
680.933 436.021 L
681.037 396.414 L
681.209 392.476 L
681.381 390.397 L
681.553 388.92 L
681.726 387.765 L
681.898 386.795 L
682.07 385.932 L
682.242 385.134 L
682.414 384.377 L
682.587 383.649 L
682.759 382.941 L
682.931 382.251 L
683.103 381.575 L
683.276 380.913 L
683.448 380.264 L
683.62 379.627 L
683.792 379.003 L
683.827 378.88 L
687.34 419.867 L
687.349 394.392 L
687.515 382.335 L
687.687 379.542 L
687.86 377.637 L
688.032 376.143 L
688.204 374.881 L
688.376 373.756 L
688.548 372.712 L
688.721 371.723 L
688.893 370.77 L
689.065 369.845 L
689.237 368.943 L
689.41 368.06 L
689.582 367.196 L
689.754 366.349 L
689.926 365.519 L
690.098 364.706 L
690.233 364.079 L
690.693 401.751 L
695.193 391.913 L
695.279 348.325 L
695.452 342.887 L
695.624 340.034 L
695.796 337.927 L
695.968 336.228 L
696.141 334.771 L
696.313 333.464 L
696.485 332.255 L
696.657 331.114 L
696.829 330.023 L
697.002 328.974 L
697.174 327.959 L
697.26 327.463 L
698.995 375.014 L
700.567 371.593 L
700.678 326.984 L
700.849 322.561 L
701.021 319.957 L
701.194 318.013 L
701.366 316.436 L
701.538 315.078 L
701.71 313.854 L
701.883 312.719 L
702.055 311.646 L
702.227 310.618 L
702.399 309.628 L
702.571 308.669 L
702.744 307.739 L
702.916 306.834 L
703.088 305.954 L
703.26 305.096 L
703.432 304.26 L
703.605 303.445 L
703.777 302.651 L
703.949 301.875 L
704.121 301.118 L
704.294 300.381 L
704.466 299.66 L
704.638 298.957 L
704.7 298.708 L
708.096 344.099 L
709.04 341.86 L
709.083 299.909 L
709.142 295.611 L
709.518 287.892 L
710.149 281.986 L
710.82 277.444 L
711.752 271.982 L
712.609 267.511 L
712.76 266.767 L
712.898 267.901 L
713.051 267.244 L
713.18 266.67 L
713.353 265.885 L
713.525 265.085 L
713.697 264.274 L
713.869 263.456 L
714.041 262.634 L
714.214 261.811 L
714.386 260.989 L
714.558 260.169 L
714.73 259.354 L
714.903 258.544 L
715.075 257.74 L
715.247 256.945 L
715.419 256.158 L
715.591 255.38 L
715.653 255.103 L
719.58 296.366 L
719.752 249.435 L
719.924 245.795 L
720.097 243.292 L
720.269 241.309 L
720.441 239.619 L
720.613 238.101 L
720.786 236.688 L
720.958 235.343 L
721.13 234.045 L
721.302 232.783 L
721.474 231.551 L
721.647 230.345 L
721.819 229.163 L
721.991 228.004 L
722.163 226.868 L
722.336 225.753 L
722.473 224.877 L
722.933 271.746 L
725.367 266.942 L
725.487 221.68 L
725.659 217.189 L
725.832 214.427 L
726.004 212.303 L
726.176 210.535 L
726.348 208.978 L
726.521 207.552 L
726.693 206.212 L
726.865 204.933 L
727.037 203.699 L
727.209 202.503 L
727.382 201.339 L
727.554 200.205 L
727.726 199.098 L
727.898 198.017 L
728.071 196.962 L
728.243 195.93 L
728.26 195.828 L
731.36 238.804 L
731.412 197.975 L
731.584 190.549 L
731.756 187.454 L
731.928 185.216 L
732.101 183.425 L
732.273 181.896 L
732.445 180.526 L
732.617 179.258 L
732.789 178.06 L
732.962 176.914 L
733.134 175.808 L
733.306 174.737 L
733.478 173.695 L
733.651 172.682 L
733.823 171.694 L
733.995 170.731 L
734.167 169.792 L
734.253 169.331 L
737.317 214.208 L
737.353 214.129 L
737.488 168.281 L
737.66 164.266 L
737.832 161.758 L
738.005 159.86 L
738.177 158.308 L
738.349 156.964 L
738.521 155.747 L
738.693 154.617 L
738.866 153.546 L
739.038 152.522 L
739.21 151.535 L
739.382 150.58 L
739.555 149.653 L
739.727 148.752 L
739.833 148.208 L
740.771 197.221 L
743.14 193.783 L
743.197 152.051 L
743.37 145.483 L
743.542 142.59 L
743.714 140.53 L
743.886 138.914 L
744.058 137.558 L
744.231 136.362 L
744.403 135.269 L
744.575 134.247 L
744.747 133.278 L
744.919 132.35 L
745.092 131.456 L
745.264 130.592 L
745.436 129.756 L
745.608 128.945 L
745.781 128.157 L
745.953 127.392 L
746.033 127.041 L
748.927 175.338 L
749.066 129.591 L
749.239 125.883 L
749.411 123.59 L
749.583 121.884 L
749.755 120.512 L
749.928 119.337 L
750.1 118.287 L
750.272 117.316 L
750.444 116.401 L
750.616 115.528 L
750.789 114.689 L
750.961 113.879 L
751.133 113.094 L
751.305 112.332 L
751.478 111.592 L
751.65 110.873 L
751.822 110.172 L
751.994 109.49 L
752.166 108.825 L
752.339 108.178 L
752.511 107.547 L
752.683 106.931 L
752.855 106.331 L
753.028 105.746 L
753.06 105.637 L
755.54 155.738 L
755.553 119.785 L
755.569 115.413 L
755.615 110.624 L
755.762 105.833 L
756.066 101.484 L
756.516 97.868 L
757.18 94.157 L
757.813 91.18 L
758.273 142.13 L
767.759 264.915 L
776.107 312.678 L
788.558 334.216 L
796.978 338.249 L
809.942 340.026 L
822.165 340.396 L
835.943 340.487 L
849.721 340.505 L
863.499 340.508 L
877.277 340.508 L
891.054 340.508 L
904.832 340.508 L
918.61 340.508 L
932.388 340.508 L
946.165 340.508 L
959.943 340.508 L
973.721 340.508 L
987.499 340.508 L
992.793 340.508 L
992.804 330.767 L
992.872 328.078 L
992.947 327.234 L
993.115 326.35 L
993.287 325.917 L
993.459 325.767 L
993.632 325.825 L
993.804 326.05 L
993.976 326.422 L
994.148 326.911 L
994.321 327.494 L
994.493 328.159 L
994.665 328.891 L
994.826 329.626 L
994.998 330.461 L
995.17 331.333 L
996.203 352.832 L
996.259 340.971 L
996.392 340.316 L
996.558 340.662 L
996.565 340.684 L
997.598 361.546 L
997.684 349.245 L
997.857 348.947 L
997.991 349.241 L
998.45 365.761 L
999.024 369.447 L
999.162 356.726 L
999.334 356.675 L
999.386 356.755 L
1000.419 376.084 L
1000.454 364.731 L
1000.626 363.063 L
1000.791 363.087 L
1001.825 381.63 L
1001.913 369.075 L
1002.073 368.432 L
1002.245 368.421 L
1002.417 368.603 L
1002.59 368.881 L
1002.762 369.212 L
1002.775 369.24 L
1007.972 395.386 L
1014.029 400.9 L
1016.798 402.321 L
1016.869 389.608 L
1017.041 388.089 L
1017.213 387.461 L
1017.385 387.068 L
1017.418 387.009 L
1018.451 402.321 L
1018.52 389.696 L
1018.692 388.227 L
1018.864 387.67 L
1018.968 387.448 L
1019.905 402.678 L
1020.001 402.811 L
1020.156 389.175 L
1020.328 388.402 L
1020.5 387.982 L
1020.518 387.95 L
1021.551 403.355 L
1021.62 390.702 L
1021.792 389.245 L
1021.964 388.7 L
1022.068 388.483 L
1023.005 403.75 L
1023.101 403.883 L
1023.256 390.226 L
1023.428 389.451 L
1023.6 389.026 L
1023.721 388.824 L
1024.18 403.347 L
1032.641 406.088 L
1037.154 406.336 L
1037.16 396.587 L
1037.171 394.901 L
1037.178 394.385 L
1037.203 393.409 L
1037.251 392.526 L
1037.323 391.869 L
1037.409 391.381 L
1037.556 390.807 L
1037.676 390.469 L
1037.829 390.144 L
1038.075 389.774 L
1038.25 389.575 L
1039.187 405.333 L
1039.283 405.462 L
1039.572 390.756 L
1040.056 405.299 L
1040.606 405.944 L
1040.895 391.16 L
1041.067 404.378 L
1041.928 406.276 L
1042.176 391.683 L
1043.21 406.637 L
1043.411 392.263 L
1043.478 391.909 L
1044.512 406.912 L
1044.708 392.659 L
1045.741 407.205 L
1045.815 420.445 L
1045.885 421.456 L
1045.922 421.793 L
1045.966 422.105 L
1045.995 422.29 L
1046.041 422.547 L
1046.093 422.799 L
1046.168 423.116 L
1046.341 423.678 L
1046.513 424.098 L
1046.672 424.408 L
1046.775 424.582 L
1046.908 410.724 L
1047.635 409.002 L
1047.808 408.907 L
S
GR
GS
[0.75 0 0 0.75 0 0] CT
1 GC
N
475 599 M
475 507 L
1070 507 L
1070 599 L
cp
f
GR
GS
[0.75 0 0 0.75 384 392.625] CT
/Helvetica 21.333 F
GS
[1 0 0 1 0 0] CT
0 8.5 moveto 
1 -1 scale
(Dynamic Pressure Boundary Condition \(DPBC\) @ 50m) t 
GR
GR
GS
[0.75 0 0 0.75 0 0] CT
0 0 1 RC
1 LJ
2.667 LW
N
479 523.5 M
509 523.5 L
S
GR
GS
[0.75 0 0 0.75 384 414.75] CT
/Helvetica 21.333 F
GS
[1 0 0 1 0 0] CT
0 8.5 moveto 
1 -1 scale
(Injection pressure: 8mx50m with 2014 parameters) t 
GR
GR
GS
[0.75 0 0 0.75 0 0] CT
1 0 0 RC
1 LJ
2.667 LW
N
479 553 M
509 553 L
S
GR
GS
[0.75 0 0 0.75 384 436.875] CT
/Helvetica 21.333 F
GS
[1 0 0 1 0 0] CT
0 8.5 moveto 
1 -1 scale
(Injection pressure: 8mx50m with Hommel 2015 parameters) t 
GR
GR
GS
[0.75 0 0 0.75 0 0] CT
0 1 0 RC
[2 2] 0 setdash
2 LJ
2.667 LW
N
479 582.5 M
509 582.5 L
S
GR
GS
[0.75 0 0 0.75 0 0] CT
0.149 GC
10.0 ML
0.667 LW
N
475 599 M
475 507 L
1070 507 L
1070 599 L
cp
S
GR
%%Trailer
%%Pages: 1
%%EOF
